%!PS-Adobe-3.0 EPSF-3.0
%%Creator: (MATLAB, The Mathworks, Inc. Version 8.4.0.150421 \(R2014b\). Operating System: Windows 8)
%%Title: C:/Users/oravec/skola/papers/y2016/cdc16/nonsym_lmi_rmpc/nonsym_lmi_rmpc/figs/u.eps
%%CreationDate: 2016-05-13T17:47:06
%%Pages: (atend)
%%BoundingBox: 0 0 420 315
%%LanguageLevel: 2
%%EndComments
%%BeginProlog
%%BeginResource: procset (Apache XML Graphics Std ProcSet) 1.2 0
%%Version: 1.2 0
%%Copyright: (Copyright 2001-2003,2010 The Apache Software Foundation. License terms: http://www.apache.org/licenses/LICENSE-2.0)
/bd{bind def}bind def
/ld{load def}bd
/GR/grestore ld
/M/moveto ld
/LJ/setlinejoin ld
/C/curveto ld
/f/fill ld
/LW/setlinewidth ld
/GC/setgray ld
/t/show ld
/N/newpath ld
/CT/concat ld
/cp/closepath ld
/S/stroke ld
/L/lineto ld
/CC/setcmykcolor ld
/A/ashow ld
/GS/gsave ld
/RC/setrgbcolor ld
/RM/rmoveto ld
/ML/setmiterlimit ld
/re {4 2 roll M
1 index 0 rlineto
0 exch rlineto
neg 0 rlineto
cp } bd
/_ctm matrix def
/_tm matrix def
/BT { _ctm currentmatrix pop matrix _tm copy pop 0 0 moveto } bd
/ET { _ctm setmatrix } bd
/iTm { _ctm setmatrix _tm concat } bd
/Tm { _tm astore pop iTm 0 0 moveto } bd
/ux 0.0 def
/uy 0.0 def
/F {
  /Tp exch def
  /Tf exch def
  Tf findfont Tp scalefont setfont
  /cf Tf def  /cs Tp def
} bd
/ULS {currentpoint /uy exch def /ux exch def} bd
/ULE {
  /Tcx currentpoint pop def
  gsave
  newpath
  cf findfont cs scalefont dup
  /FontMatrix get 0 get /Ts exch def /FontInfo get dup
  /UnderlinePosition get Ts mul /To exch def
  /UnderlineThickness get Ts mul /Tt exch def
  ux uy To add moveto  Tcx uy To add lineto
  Tt setlinewidth stroke
  grestore
} bd
/OLE {
  /Tcx currentpoint pop def
  gsave
  newpath
  cf findfont cs scalefont dup
  /FontMatrix get 0 get /Ts exch def /FontInfo get dup
  /UnderlinePosition get Ts mul /To exch def
  /UnderlineThickness get Ts mul /Tt exch def
  ux uy To add cs add moveto Tcx uy To add cs add lineto
  Tt setlinewidth stroke
  grestore
} bd
/SOE {
  /Tcx currentpoint pop def
  gsave
  newpath
  cf findfont cs scalefont dup
  /FontMatrix get 0 get /Ts exch def /FontInfo get dup
  /UnderlinePosition get Ts mul /To exch def
  /UnderlineThickness get Ts mul /Tt exch def
  ux uy To add cs 10 mul 26 idiv add moveto Tcx uy To add cs 10 mul 26 idiv add lineto
  Tt setlinewidth stroke
  grestore
} bd
/QT {
/Y22 exch store
/X22 exch store
/Y21 exch store
/X21 exch store
currentpoint
/Y21 load 2 mul add 3 div exch
/X21 load 2 mul add 3 div exch
/X21 load 2 mul /X22 load add 3 div
/Y21 load 2 mul /Y22 load add 3 div
/X22 load /Y22 load curveto
} bd
/SSPD {
dup length /d exch dict def
{
/v exch def
/k exch def
currentpagedevice k known {
/cpdv currentpagedevice k get def
v cpdv ne {
/upd false def
/nullv v type /nulltype eq def
/nullcpdv cpdv type /nulltype eq def
nullv nullcpdv or
{
/upd true def
} {
/sametype v type cpdv type eq def
sametype {
v type /arraytype eq {
/vlen v length def
/cpdvlen cpdv length def
vlen cpdvlen eq {
0 1 vlen 1 sub {
/i exch def
/obj v i get def
/cpdobj cpdv i get def
obj cpdobj ne {
/upd true def
exit
} if
} for
} {
/upd true def
} ifelse
} {
v type /dicttype eq {
v {
/dv exch def
/dk exch def
/cpddv cpdv dk get def
dv cpddv ne {
/upd true def
exit
} if
} forall
} {
/upd true def
} ifelse
} ifelse
} if
} ifelse
upd true eq {
d k v put
} if
} if
} if
} forall
d length 0 gt {
d setpagedevice
} if
} bd
%%EndResource
%%BeginResource: procset (Apache XML Graphics EPS ProcSet) 1.0 0
%%Version: 1.0 0
%%Copyright: (Copyright 2002-2003 The Apache Software Foundation. License terms: http://www.apache.org/licenses/LICENSE-2.0)
/BeginEPSF { %def
/b4_Inc_state save def         % Save state for cleanup
/dict_count countdictstack def % Count objects on dict stack
/op_count count 1 sub def      % Count objects on operand stack
userdict begin                 % Push userdict on dict stack
/showpage { } def              % Redefine showpage, { } = null proc
0 setgray 0 setlinecap         % Prepare graphics state
1 setlinewidth 0 setlinejoin
10 setmiterlimit [ ] 0 setdash newpath
/languagelevel where           % If level not equal to 1 then
{pop languagelevel             % set strokeadjust and
1 ne                           % overprint to their defaults.
{false setstrokeadjust false setoverprint
} if
} if
} bd
/EndEPSF { %def
count op_count sub {pop} repeat            % Clean up stacks
countdictstack dict_count sub {end} repeat
b4_Inc_state restore
} bd
%%EndResource
%FOPBeginFontDict
%%IncludeResource: font Courier-Bold
%%IncludeResource: font Helvetica
%%IncludeResource: font Courier-BoldOblique
%%IncludeResource: font Courier-Oblique
%%IncludeResource: font Times-Roman
%%IncludeResource: font Helvetica-BoldOblique
%%IncludeResource: font Helvetica-Bold
%%IncludeResource: font Helvetica-Oblique
%%IncludeResource: font Times-BoldItalic
%%IncludeResource: font Courier
%%IncludeResource: font Times-Italic
%%IncludeResource: font Times-Bold
%%IncludeResource: font Symbol
%%IncludeResource: font ZapfDingbats
%FOPEndFontDict
%%BeginResource: encoding WinAnsiEncoding
/WinAnsiEncoding [
/.notdef /.notdef /.notdef /.notdef /.notdef
/.notdef /.notdef /.notdef /.notdef /.notdef
/.notdef /.notdef /.notdef /.notdef /.notdef
/.notdef /.notdef /.notdef /.notdef /.notdef
/.notdef /.notdef /.notdef /.notdef /.notdef
/.notdef /.notdef /.notdef /.notdef /.notdef
/.notdef /.notdef /space /exclam /quotedbl
/numbersign /dollar /percent /ampersand /quotesingle
/parenleft /parenright /asterisk /plus /comma
/hyphen /period /slash /zero /one
/two /three /four /five /six
/seven /eight /nine /colon /semicolon
/less /equal /greater /question /at
/A /B /C /D /E
/F /G /H /I /J
/K /L /M /N /O
/P /Q /R /S /T
/U /V /W /X /Y
/Z /bracketleft /backslash /bracketright /asciicircum
/underscore /quoteleft /a /b /c
/d /e /f /g /h
/i /j /k /l /m
/n /o /p /q /r
/s /t /u /v /w
/x /y /z /braceleft /bar
/braceright /asciitilde /bullet /Euro /bullet
/quotesinglbase /florin /quotedblbase /ellipsis /dagger
/daggerdbl /circumflex /perthousand /Scaron /guilsinglleft
/OE /bullet /Zcaron /bullet /bullet
/quoteleft /quoteright /quotedblleft /quotedblright /bullet
/endash /emdash /asciitilde /trademark /scaron
/guilsinglright /oe /bullet /zcaron /Ydieresis
/space /exclamdown /cent /sterling /currency
/yen /brokenbar /section /dieresis /copyright
/ordfeminine /guillemotleft /logicalnot /sfthyphen /registered
/macron /degree /plusminus /twosuperior /threesuperior
/acute /mu /paragraph /middot /cedilla
/onesuperior /ordmasculine /guillemotright /onequarter /onehalf
/threequarters /questiondown /Agrave /Aacute /Acircumflex
/Atilde /Adieresis /Aring /AE /Ccedilla
/Egrave /Eacute /Ecircumflex /Edieresis /Igrave
/Iacute /Icircumflex /Idieresis /Eth /Ntilde
/Ograve /Oacute /Ocircumflex /Otilde /Odieresis
/multiply /Oslash /Ugrave /Uacute /Ucircumflex
/Udieresis /Yacute /Thorn /germandbls /agrave
/aacute /acircumflex /atilde /adieresis /aring
/ae /ccedilla /egrave /eacute /ecircumflex
/edieresis /igrave /iacute /icircumflex /idieresis
/eth /ntilde /ograve /oacute /ocircumflex
/otilde /odieresis /divide /oslash /ugrave
/uacute /ucircumflex /udieresis /yacute /thorn
/ydieresis
] def
%%EndResource
%FOPBeginFontReencode
/Courier-Bold findfont
dup length dict begin
  {1 index /FID ne {def} {pop pop} ifelse} forall
  /Encoding WinAnsiEncoding def
  currentdict
end
/Courier-Bold exch definefont pop
/Helvetica findfont
dup length dict begin
  {1 index /FID ne {def} {pop pop} ifelse} forall
  /Encoding WinAnsiEncoding def
  currentdict
end
/Helvetica exch definefont pop
/Courier-BoldOblique findfont
dup length dict begin
  {1 index /FID ne {def} {pop pop} ifelse} forall
  /Encoding WinAnsiEncoding def
  currentdict
end
/Courier-BoldOblique exch definefont pop
/Courier-Oblique findfont
dup length dict begin
  {1 index /FID ne {def} {pop pop} ifelse} forall
  /Encoding WinAnsiEncoding def
  currentdict
end
/Courier-Oblique exch definefont pop
/Times-Roman findfont
dup length dict begin
  {1 index /FID ne {def} {pop pop} ifelse} forall
  /Encoding WinAnsiEncoding def
  currentdict
end
/Times-Roman exch definefont pop
/Helvetica-BoldOblique findfont
dup length dict begin
  {1 index /FID ne {def} {pop pop} ifelse} forall
  /Encoding WinAnsiEncoding def
  currentdict
end
/Helvetica-BoldOblique exch definefont pop
/Helvetica-Bold findfont
dup length dict begin
  {1 index /FID ne {def} {pop pop} ifelse} forall
  /Encoding WinAnsiEncoding def
  currentdict
end
/Helvetica-Bold exch definefont pop
/Helvetica-Oblique findfont
dup length dict begin
  {1 index /FID ne {def} {pop pop} ifelse} forall
  /Encoding WinAnsiEncoding def
  currentdict
end
/Helvetica-Oblique exch definefont pop
/Times-BoldItalic findfont
dup length dict begin
  {1 index /FID ne {def} {pop pop} ifelse} forall
  /Encoding WinAnsiEncoding def
  currentdict
end
/Times-BoldItalic exch definefont pop
/Courier findfont
dup length dict begin
  {1 index /FID ne {def} {pop pop} ifelse} forall
  /Encoding WinAnsiEncoding def
  currentdict
end
/Courier exch definefont pop
/Times-Italic findfont
dup length dict begin
  {1 index /FID ne {def} {pop pop} ifelse} forall
  /Encoding WinAnsiEncoding def
  currentdict
end
/Times-Italic exch definefont pop
/Times-Bold findfont
dup length dict begin
  {1 index /FID ne {def} {pop pop} ifelse} forall
  /Encoding WinAnsiEncoding def
  currentdict
end
/Times-Bold exch definefont pop
%FOPEndFontReencode
%%EndProlog
%%Page: 1 1
%%PageBoundingBox: 0 0 420 315
%%BeginPageSetup
[1 0 0 -1 0 315] CT
%%EndPageSetup
GS
[0.75 0 0 0.75 0 0] CT
1 GC
N
0 0 560 420 re
f
GR
GS
[0.75 0 0 0.75 0 0] CT
1 GC
N
0 0 560 420 re
f
GR
GS
[0.75 0 0 0.75 0 0] CT
1 GC
N
79 358 M
507 358 L
507 31 L
79 31 L
cp
f
GR
GS
[0.75 0 0 0.75 219.75 287.10342] CT
0.149 GC
/Helvetica 24 F
GS
[1 0 0 1 0 0] CT
-3.334 22.119 moveto 
1 -1 scale
(t) t 
GR
GR
GS
[0.75 0 0 0.75 0 0] CT
0.149 GC
2 setlinecap
10.0 ML
N
79 358 M
507 358 L
S
GR
GS
[0.75 0 0 0.75 0 0] CT
0.149 GC
2 setlinecap
10.0 ML
N
79 31 M
507 31 L
S
GR
GS
[0.75 0 0 0.75 0 0] CT
0.149 GC
2 setlinecap
10.0 ML
N
79 358 M
79 353.72 L
S
GR
GS
[0.75 0 0 0.75 0 0] CT
0.149 GC
2 setlinecap
10.0 ML
N
79 31 M
79 35.28 L
S
GR
GS
[0.75 0 0 0.75 0 0] CT
0.149 GC
2 setlinecap
10.0 ML
N
164.6 358 M
164.6 353.72 L
S
GR
GS
[0.75 0 0 0.75 0 0] CT
0.149 GC
2 setlinecap
10.0 ML
N
164.6 31 M
164.6 35.28 L
S
GR
GS
[0.75 0 0 0.75 0 0] CT
0.149 GC
2 setlinecap
10.0 ML
N
250.2 358 M
250.2 353.72 L
S
GR
GS
[0.75 0 0 0.75 0 0] CT
0.149 GC
2 setlinecap
10.0 ML
N
250.2 31 M
250.2 35.28 L
S
GR
GS
[0.75 0 0 0.75 0 0] CT
0.149 GC
2 setlinecap
10.0 ML
N
335.8 358 M
335.8 353.72 L
S
GR
GS
[0.75 0 0 0.75 0 0] CT
0.149 GC
2 setlinecap
10.0 ML
N
335.8 31 M
335.8 35.28 L
S
GR
GS
[0.75 0 0 0.75 0 0] CT
0.149 GC
2 setlinecap
10.0 ML
N
421.4 358 M
421.4 353.72 L
S
GR
GS
[0.75 0 0 0.75 0 0] CT
0.149 GC
2 setlinecap
10.0 ML
N
421.4 31 M
421.4 35.28 L
S
GR
GS
[0.75 0 0 0.75 0 0] CT
0.149 GC
2 setlinecap
10.0 ML
N
507 358 M
507 353.72 L
S
GR
GS
[0.75 0 0 0.75 0 0] CT
0.149 GC
2 setlinecap
10.0 ML
N
507 31 M
507 35.28 L
S
GR
GS
[0.75 0 0 0.75 59.25 274.10001] CT
0.149 GC
/Helvetica 24 F
GS
[1 0 0 1 0 0] CT
-6.674 22.119 moveto 
1 -1 scale
(0) t 
GR
GR
GS
[0.75 0 0 0.75 123.45 274.10001] CT
0.149 GC
/Helvetica 24 F
GS
[1 0 0 1 0 0] CT
-13.348 22.119 moveto 
1 -1 scale
(10) t 
GR
GR
GS
[0.75 0 0 0.75 187.65 274.10001] CT
0.149 GC
/Helvetica 24 F
GS
[1 0 0 1 0 0] CT
-13.348 22.119 moveto 
1 -1 scale
(20) t 
GR
GR
GS
[0.75 0 0 0.75 251.84999 274.10001] CT
0.149 GC
/Helvetica 24 F
GS
[1 0 0 1 0 0] CT
-13.348 22.119 moveto 
1 -1 scale
(30) t 
GR
GR
GS
[0.75 0 0 0.75 316.05 274.10001] CT
0.149 GC
/Helvetica 24 F
GS
[1 0 0 1 0 0] CT
-13.348 22.119 moveto 
1 -1 scale
(40) t 
GR
GR
GS
[0.75 0 0 0.75 380.25 274.10001] CT
0.149 GC
/Helvetica 24 F
GS
[1 0 0 1 0 0] CT
-13.348 22.119 moveto 
1 -1 scale
(50) t 
GR
GR
GS
[0 -0.75 0.75 0 29.1217 145.875] CT
0.149 GC
/Helvetica 24 F
GS
[1 0 0 1 0 0] CT
-6.674 -4.479 moveto 
1 -1 scale
(u) t 
GR
GR
GS
[0.75 0 0 0.75 0 0] CT
0.149 GC
2 setlinecap
10.0 ML
N
79 358 M
79 31 L
S
GR
GS
[0.75 0 0 0.75 0 0] CT
0.149 GC
2 setlinecap
10.0 ML
N
507 358 M
507 31 L
S
GR
GS
[0.75 0 0 0.75 0 0] CT
0.149 GC
2 setlinecap
10.0 ML
N
79 358 M
83.28 358 L
S
GR
GS
[0.75 0 0 0.75 0 0] CT
0.149 GC
2 setlinecap
10.0 ML
N
507 358 M
502.72 358 L
S
GR
GS
[0.75 0 0 0.75 0 0] CT
0.149 GC
2 setlinecap
10.0 ML
N
79 276.25 M
83.28 276.25 L
S
GR
GS
[0.75 0 0 0.75 0 0] CT
0.149 GC
2 setlinecap
10.0 ML
N
507 276.25 M
502.72 276.25 L
S
GR
GS
[0.75 0 0 0.75 0 0] CT
0.149 GC
2 setlinecap
10.0 ML
N
79 194.5 M
83.28 194.5 L
S
GR
GS
[0.75 0 0 0.75 0 0] CT
0.149 GC
2 setlinecap
10.0 ML
N
507 194.5 M
502.72 194.5 L
S
GR
GS
[0.75 0 0 0.75 0 0] CT
0.149 GC
2 setlinecap
10.0 ML
N
79 112.75 M
83.28 112.75 L
S
GR
GS
[0.75 0 0 0.75 0 0] CT
0.149 GC
2 setlinecap
10.0 ML
N
507 112.75 M
502.72 112.75 L
S
GR
GS
[0.75 0 0 0.75 0 0] CT
0.149 GC
2 setlinecap
10.0 ML
N
79 31 M
83.28 31 L
S
GR
GS
[0.75 0 0 0.75 0 0] CT
0.149 GC
2 setlinecap
10.0 ML
N
507 31 M
502.72 31 L
S
GR
GS
[0.75 0 0 0.75 53.65 268.5] CT
0.149 GC
/Helvetica 24 F
GS
[1 0 0 1 0 0] CT
-41.355 8.82 moveto 
1 -1 scale
(-1.5) t 
GR
GR
GS
[0.75 0 0 0.75 53.65 207.1875] CT
0.149 GC
/Helvetica 24 F
GS
[1 0 0 1 0 0] CT
-34.676 8.82 moveto 
1 -1 scale
(  -1) t 
GR
GR
GS
[0.75 0 0 0.75 53.65 145.875] CT
0.149 GC
/Helvetica 24 F
GS
[1 0 0 1 0 0] CT
-41.355 8.82 moveto 
1 -1 scale
(-0.5) t 
GR
GR
GS
[0.75 0 0 0.75 53.65 84.5625] CT
0.149 GC
/Helvetica 24 F
GS
[1 0 0 1 0 0] CT
-33.352 8.82 moveto 
1 -1 scale
(   0) t 
GR
GR
GS
[0.75 0 0 0.75 53.65 23.25] CT
0.149 GC
/Helvetica 24 F
GS
[1 0 0 1 0 0] CT
-40.031 8.82 moveto 
1 -1 scale
( 0.5) t 
GR
GR
GS
[0.75 0 0 0.75 0 0] CT
1 0 0 RC
[8 3 2 3] 0 setdash
2 LJ
N
79 325.3 M
507.043 325.3 L
S
GR
GS
[0.75 0 0 0.75 0 0] CT
1 0 0 RC
[10 6] 0 setdash
2 LJ
N
79 63.7 M
507.043 63.7 L
S
GR
GS
[0.75 0 0 0.75 0 0] CT
1 0 0 RC
[10 6] 0 setdash
2 LJ
N
79 161.8 M
507.043 161.8 L
S
GR
GS
[0.75 0 0 0.75 0 0] CT
0.2 0.702 0 RC
2 setlinecap
10.0 ML
N
79 112.75 M
87.56 316.089 L
96.12 325.03 L
104.68 316.635 L
113.24 278.928 L
121.8 208.996 L
130.36 76.732 L
138.92 74.239 L
147.48 71.733 L
156.04 69.073 L
164.6 66.17 L
173.16 83.338 L
181.72 114.134 L
190.28 114.391 L
198.84 114.273 L
207.4 114 L
215.96 113.641 L
224.52 113.219 L
233.08 112.857 L
241.64 112.788 L
250.2 112.757 L
258.76 112.745 L
267.32 112.743 L
275.88 112.744 L
284.44 112.746 L
293 112.748 L
301.56 112.749 L
310.12 112.749 L
318.68 112.75 L
327.24 112.75 L
335.8 112.75 L
344.36 112.75 L
352.92 112.75 L
361.48 112.75 L
370.04 112.75 L
378.6 112.75 L
387.16 112.75 L
395.72 112.75 L
404.28 112.75 L
412.84 112.75 L
421.4 112.75 L
429.96 112.75 L
438.52 112.75 L
447.08 112.75 L
455.64 112.75 L
464.2 112.75 L
472.76 112.75 L
481.32 112.75 L
489.88 112.75 L
498.44 112.75 L
507 112.75 L
507.043 112.75 L
S
GR
GS
[0.75 0 0 0.75 0 0] CT
0.2 0.702 0 RC
2 setlinecap
10.0 ML
N
79 112.75 M
87.56 316.089 L
96.12 325.011 L
104.68 316.564 L
113.24 280.096 L
121.8 217.131 L
130.36 114.03 L
138.92 76.012 L
147.48 74.245 L
156.04 72.216 L
164.6 69.805 L
173.16 66.955 L
181.72 83.895 L
190.28 107.522 L
198.84 112.837 L
207.4 112.796 L
215.96 112.773 L
224.52 112.762 L
233.08 112.755 L
241.64 112.752 L
250.2 112.751 L
258.76 112.75 L
267.32 112.75 L
275.88 112.75 L
284.44 112.75 L
293 112.75 L
301.56 112.75 L
310.12 112.75 L
318.68 112.75 L
327.24 112.75 L
335.8 112.75 L
344.36 112.75 L
352.92 112.75 L
361.48 112.75 L
370.04 112.75 L
378.6 112.75 L
387.16 112.75 L
395.72 112.75 L
404.28 112.75 L
412.84 112.75 L
421.4 112.75 L
429.96 112.75 L
438.52 112.75 L
447.08 112.75 L
455.64 112.75 L
464.2 112.75 L
472.76 112.75 L
481.32 112.75 L
489.88 112.75 L
498.44 112.75 L
507 112.75 L
507.043 112.75 L
S
GR
GS
[0.75 0 0 0.75 0 0] CT
0.2 0.702 0 RC
2 setlinecap
10.0 ML
N
79 112.75 M
87.56 316.089 L
96.12 324.945 L
104.68 316.89 L
113.24 277.638 L
121.8 204.494 L
130.36 76.191 L
138.92 73.888 L
147.48 71.457 L
156.04 68.726 L
164.6 68.359 L
173.16 97.375 L
181.72 110.846 L
190.28 112.751 L
198.84 112.78 L
207.4 112.777 L
215.96 112.769 L
224.52 112.762 L
233.08 112.757 L
241.64 112.754 L
250.2 112.752 L
258.76 112.751 L
267.32 112.75 L
275.88 112.75 L
284.44 112.75 L
293 112.75 L
301.56 112.75 L
310.12 112.75 L
318.68 112.75 L
327.24 112.75 L
335.8 112.75 L
344.36 112.75 L
352.92 112.75 L
361.48 112.75 L
370.04 112.75 L
378.6 112.75 L
387.16 112.75 L
395.72 112.75 L
404.28 112.75 L
412.84 112.75 L
421.4 112.75 L
429.96 112.75 L
438.52 112.75 L
447.08 112.75 L
455.64 112.75 L
464.2 112.75 L
472.76 112.75 L
481.32 112.75 L
489.88 112.75 L
498.44 112.75 L
507 112.75 L
507.043 112.75 L
S
GR
GS
[0.75 0 0 0.75 0 0] CT
0.2 0.702 0 RC
2 setlinecap
10.0 ML
N
79 112.75 M
87.56 316.089 L
96.12 324.921 L
104.68 316.821 L
113.24 278.832 L
121.8 212.837 L
130.36 78.748 L
138.92 78.234 L
147.48 80.046 L
156.04 84.027 L
164.6 88.124 L
173.16 92.354 L
181.72 96.193 L
190.28 99.994 L
198.84 103.362 L
207.4 106.133 L
215.96 108.269 L
224.52 109.842 L
233.08 110.947 L
241.64 111.685 L
250.2 112.153 L
258.76 112.438 L
267.32 112.587 L
275.88 112.675 L
284.44 112.716 L
293 112.734 L
301.56 112.743 L
310.12 112.747 L
318.68 112.749 L
327.24 112.75 L
335.8 112.75 L
344.36 112.75 L
352.92 112.75 L
361.48 112.75 L
370.04 112.75 L
378.6 112.75 L
387.16 112.75 L
395.72 112.75 L
404.28 112.75 L
412.84 112.75 L
421.4 112.75 L
429.96 112.75 L
438.52 112.75 L
447.08 112.75 L
455.64 112.75 L
464.2 112.75 L
472.76 112.75 L
481.32 112.75 L
489.88 112.75 L
498.44 112.75 L
507 112.75 L
507.043 112.75 L
S
GR
GS
[0.75 0 0 0.75 0 0] CT
0.2 0.702 0 RC
2 setlinecap
10.0 ML
N
79 112.75 M
87.56 316.089 L
96.12 325.03 L
104.68 316.635 L
113.24 278.928 L
121.8 208.996 L
130.36 76.732 L
138.92 74.239 L
147.48 71.733 L
156.04 69.073 L
164.6 66.17 L
173.16 83.338 L
181.72 114.134 L
190.28 114.391 L
198.84 114.273 L
207.4 114 L
215.96 113.641 L
224.52 113.219 L
233.08 112.857 L
241.64 112.788 L
250.2 112.757 L
258.76 112.745 L
267.32 112.743 L
275.88 112.744 L
284.44 112.746 L
293 112.748 L
301.56 112.749 L
310.12 112.749 L
318.68 112.75 L
327.24 112.75 L
335.8 112.75 L
344.36 112.75 L
352.92 112.75 L
361.48 112.75 L
370.04 112.75 L
378.6 112.75 L
387.16 112.75 L
395.72 112.75 L
404.28 112.75 L
412.84 112.75 L
421.4 112.75 L
429.96 112.75 L
438.52 112.75 L
447.08 112.75 L
455.64 112.75 L
464.2 112.75 L
472.76 112.75 L
481.32 112.75 L
489.88 112.75 L
498.44 112.75 L
507 112.75 L
507.043 112.75 L
S
GR
GS
[0.75 0 0 0.75 0 0] CT
0.2 0.702 0 RC
2 setlinecap
10.0 ML
N
79 112.75 M
87.56 316.089 L
96.12 325.281 L
104.68 308.408 L
113.24 256.455 L
121.8 175.605 L
130.36 76.742 L
138.92 77.263 L
147.48 85.89 L
156.04 92.987 L
164.6 98.134 L
173.16 101.322 L
181.72 104.143 L
190.28 106.432 L
198.84 108.202 L
207.4 109.527 L
215.96 110.496 L
224.52 111.191 L
233.08 111.682 L
241.64 112.024 L
250.2 112.26 L
258.76 112.422 L
267.32 112.533 L
275.88 112.61 L
284.44 112.666 L
293 112.709 L
301.56 112.694 L
310.12 112.72 L
318.68 112.733 L
327.24 112.739 L
335.8 112.743 L
344.36 112.746 L
352.92 112.747 L
361.48 112.748 L
370.04 112.749 L
378.6 112.749 L
387.16 112.749 L
395.72 112.75 L
404.28 112.75 L
412.84 112.75 L
421.4 112.75 L
429.96 112.75 L
438.52 112.75 L
447.08 112.75 L
455.64 112.75 L
464.2 112.75 L
472.76 112.75 L
481.32 112.75 L
489.88 112.75 L
498.44 112.75 L
507 112.75 L
507.043 112.75 L
S
GR
GS
[0.75 0 0 0.75 0 0] CT
0.2 0.702 0 RC
2 setlinecap
10.0 ML
N
79 112.75 M
87.56 316.089 L
96.12 324.945 L
104.68 316.89 L
113.24 277.638 L
121.8 204.494 L
130.36 76.191 L
138.92 73.888 L
147.48 71.457 L
156.04 68.726 L
164.6 68.359 L
173.16 97.375 L
181.72 110.846 L
190.28 112.751 L
198.84 112.78 L
207.4 112.777 L
215.96 112.769 L
224.52 112.762 L
233.08 112.757 L
241.64 112.754 L
250.2 112.752 L
258.76 112.751 L
267.32 112.75 L
275.88 112.75 L
284.44 112.75 L
293 112.75 L
301.56 112.75 L
310.12 112.75 L
318.68 112.75 L
327.24 112.75 L
335.8 112.75 L
344.36 112.75 L
352.92 112.75 L
361.48 112.75 L
370.04 112.75 L
378.6 112.75 L
387.16 112.75 L
395.72 112.75 L
404.28 112.75 L
412.84 112.75 L
421.4 112.75 L
429.96 112.75 L
438.52 112.75 L
447.08 112.75 L
455.64 112.75 L
464.2 112.75 L
472.76 112.75 L
481.32 112.75 L
489.88 112.75 L
498.44 112.75 L
507 112.75 L
507.043 112.75 L
S
GR
GS
[0.75 0 0 0.75 0 0] CT
0.2 0.702 0 RC
2 setlinecap
10.0 ML
N
79 112.75 M
87.56 316.089 L
96.12 325.252 L
104.68 308.511 L
113.24 253.841 L
121.8 164.169 L
130.36 76.664 L
138.92 80.524 L
147.48 90.407 L
156.04 96.276 L
164.6 100.347 L
173.16 102.852 L
181.72 104.866 L
190.28 106.685 L
198.84 108.177 L
207.4 109.346 L
215.96 110.239 L
224.52 110.91 L
233.08 111.408 L
241.64 111.775 L
250.2 112.043 L
258.76 112.238 L
267.32 112.38 L
275.88 112.482 L
284.44 112.557 L
293 112.614 L
301.56 112.658 L
310.12 112.692 L
318.68 112.713 L
327.24 112.719 L
335.8 112.702 L
344.36 112.724 L
352.92 112.734 L
361.48 112.74 L
370.04 112.743 L
378.6 112.745 L
387.16 112.747 L
395.72 112.748 L
404.28 112.748 L
412.84 112.749 L
421.4 112.749 L
429.96 112.749 L
438.52 112.75 L
447.08 112.75 L
455.64 112.75 L
464.2 112.75 L
472.76 112.75 L
481.32 112.75 L
489.88 112.75 L
498.44 112.75 L
507 112.75 L
507.043 112.75 L
S
GR
GS
[0.75 0 0 0.75 0 0] CT
0 0 1 RC
2 setlinecap
10.0 ML
N
79 112.75 M
87.56 152.296 L
96.12 153.708 L
104.68 154.84 L
113.24 155.781 L
121.8 157.552 L
130.36 159.205 L
138.92 160.861 L
147.48 161.469 L
156.04 161.716 L
164.6 161.798 L
173.16 161.634 L
181.72 161.125 L
190.28 160.211 L
198.84 158.969 L
207.4 157.108 L
215.96 154.404 L
224.52 150.591 L
233.08 145.104 L
241.64 137.777 L
250.2 128.889 L
258.76 118.71 L
267.32 107.925 L
275.88 97.725 L
284.44 89.708 L
293 85.134 L
301.56 83.064 L
310.12 84.147 L
318.68 87.768 L
327.24 93.221 L
335.8 99.749 L
344.36 106.881 L
352.92 112.737 L
361.48 112.826 L
370.04 112.804 L
378.6 112.783 L
387.16 112.768 L
395.72 112.759 L
404.28 112.753 L
412.84 112.751 L
421.4 112.75 L
429.96 112.75 L
438.52 112.75 L
447.08 112.75 L
455.64 112.75 L
464.2 112.75 L
472.76 112.75 L
481.32 112.75 L
489.88 112.75 L
498.44 112.75 L
507 112.75 L
507.043 112.75 L
S
GR
GS
[0.75 0 0 0.75 0 0] CT
0 0 1 RC
2 setlinecap
10.0 ML
N
79 112.75 M
87.56 152.296 L
96.12 153.713 L
104.68 154.829 L
113.24 155.733 L
121.8 156.98 L
130.36 158.433 L
138.92 159.584 L
147.48 160.476 L
156.04 161.236 L
164.6 161.733 L
173.16 161.739 L
181.72 161.207 L
190.28 160.239 L
198.84 159.128 L
207.4 157.801 L
215.96 156.088 L
224.52 153.925 L
233.08 151.256 L
241.64 147.927 L
250.2 143.794 L
258.76 139.183 L
267.32 134.168 L
275.88 128.857 L
284.44 123.377 L
293 117.892 L
301.56 112.588 L
310.12 107.669 L
318.68 103.325 L
327.24 99.665 L
335.8 96.671 L
344.36 94.24 L
352.92 92.281 L
361.48 90.787 L
370.04 89.864 L
378.6 89.753 L
387.16 90.308 L
395.72 88.792 L
404.28 89.752 L
412.84 92.345 L
421.4 95.333 L
429.96 98.922 L
438.52 102.462 L
447.08 105.556 L
455.64 108.089 L
464.2 110.008 L
472.76 111.332 L
481.32 112.157 L
489.88 112.587 L
498.44 112.683 L
507 112.727 L
507.043 112.727 L
S
GR
GS
[0.75 0 0 0.75 0 0] CT
0 0 1 RC
2 setlinecap
10.0 ML
N
79 112.75 M
87.56 152.296 L
96.12 153.73 L
104.68 154.884 L
113.24 155.897 L
121.8 157.974 L
130.36 159.817 L
138.92 161.065 L
147.48 161.429 L
156.04 161.695 L
164.6 161.8 L
173.16 161.656 L
181.72 161.154 L
190.28 160.212 L
198.84 158.918 L
207.4 156.959 L
215.96 154.097 L
224.52 150.055 L
233.08 144.2 L
241.64 136.555 L
250.2 127.418 L
258.76 117.197 L
267.32 106.743 L
275.88 97.324 L
284.44 90.373 L
293 86.478 L
301.56 84.759 L
310.12 86.465 L
318.68 90.187 L
327.24 95.238 L
335.8 100.697 L
344.36 105.737 L
352.92 109.729 L
361.48 112.076 L
370.04 112.686 L
378.6 112.732 L
387.16 112.749 L
395.72 112.755 L
404.28 112.755 L
412.84 112.754 L
421.4 112.753 L
429.96 112.752 L
438.52 112.751 L
447.08 112.75 L
455.64 112.75 L
464.2 112.75 L
472.76 112.75 L
481.32 112.75 L
489.88 112.75 L
498.44 112.75 L
507 112.75 L
507.043 112.75 L
S
GR
GS
[0.75 0 0 0.75 0 0] CT
0 0 1 RC
2 setlinecap
10.0 ML
N
79 112.75 M
87.56 152.296 L
96.12 153.736 L
104.68 154.873 L
113.24 155.797 L
121.8 157.437 L
130.36 158.879 L
138.92 160.002 L
147.48 161.027 L
156.04 161.673 L
164.6 161.777 L
173.16 161.521 L
181.72 160.935 L
190.28 160.115 L
198.84 159.071 L
207.4 157.672 L
215.96 155.855 L
224.52 153.557 L
233.08 150.721 L
241.64 147.137 L
250.2 142.808 L
258.76 138.019 L
267.32 132.87 L
275.88 127.488 L
284.44 122.027 L
293 116.666 L
301.56 111.599 L
310.12 107.016 L
318.68 103.063 L
327.24 99.797 L
335.8 97.179 L
344.36 95.124 L
352.92 93.58 L
361.48 92.558 L
370.04 92.122 L
378.6 92.253 L
387.16 92.645 L
395.72 90.772 L
404.28 91.15 L
412.84 93.353 L
421.4 96.02 L
429.96 98.984 L
438.52 102.029 L
447.08 104.78 L
455.64 107.08 L
464.2 108.874 L
472.76 110.21 L
481.32 111.159 L
489.88 111.8 L
498.44 112.211 L
507 112.466 L
507.043 112.467 L
S
GR
GS
[0.75 0 0 0.75 0 0] CT
0 0 1 RC
2 setlinecap
10.0 ML
N
79 112.75 M
87.56 152.296 L
96.12 153.708 L
104.68 154.84 L
113.24 155.781 L
121.8 157.552 L
130.36 159.205 L
138.92 160.861 L
147.48 161.469 L
156.04 161.716 L
164.6 161.798 L
173.16 161.634 L
181.72 161.125 L
190.28 160.211 L
198.84 158.969 L
207.4 157.108 L
215.96 154.404 L
224.52 150.591 L
233.08 145.104 L
241.64 137.777 L
250.2 128.889 L
258.76 118.71 L
267.32 107.925 L
275.88 97.725 L
284.44 89.708 L
293 85.134 L
301.56 83.064 L
310.12 84.147 L
318.68 87.768 L
327.24 93.221 L
335.8 99.749 L
344.36 106.881 L
352.92 112.737 L
361.48 112.826 L
370.04 112.804 L
378.6 112.783 L
387.16 112.768 L
395.72 112.759 L
404.28 112.753 L
412.84 112.751 L
421.4 112.75 L
429.96 112.75 L
438.52 112.75 L
447.08 112.75 L
455.64 112.75 L
464.2 112.75 L
472.76 112.75 L
481.32 112.75 L
489.88 112.75 L
498.44 112.75 L
507 112.75 L
507.043 112.75 L
S
GR
GS
[0.75 0 0 0.75 0 0] CT
0 0 1 RC
2 setlinecap
10.0 ML
N
79 112.75 M
87.56 152.296 L
96.12 155.746 L
104.68 159.581 L
113.24 160.415 L
121.8 161.156 L
130.36 161.679 L
138.92 161.766 L
147.48 161.207 L
156.04 159.996 L
164.6 158.383 L
173.16 156.21 L
181.72 153.489 L
190.28 150.268 L
198.84 146.444 L
207.4 142.176 L
215.96 137.84 L
224.52 133.574 L
233.08 129.492 L
241.64 125.682 L
250.2 122.2 L
258.76 119.071 L
267.32 116.296 L
275.88 113.855 L
284.44 111.72 L
293 109.841 L
301.56 108.183 L
310.12 106.709 L
318.68 105.118 L
327.24 100.995 L
335.8 99.134 L
344.36 100.738 L
352.92 102.435 L
361.48 104.336 L
370.04 106.255 L
378.6 107.898 L
387.16 109.21 L
395.72 110.213 L
404.28 110.96 L
412.84 111.502 L
421.4 111.889 L
429.96 112.161 L
438.52 112.35 L
447.08 112.481 L
455.64 112.572 L
464.2 112.637 L
472.76 112.685 L
481.32 112.705 L
489.88 112.706 L
498.44 112.725 L
507 112.735 L
507.043 112.735 L
S
GR
GS
[0.75 0 0 0.75 0 0] CT
0 0 1 RC
2 setlinecap
10.0 ML
N
79 112.75 M
87.56 152.296 L
96.12 153.73 L
104.68 154.884 L
113.24 155.897 L
121.8 157.974 L
130.36 159.817 L
138.92 161.065 L
147.48 161.429 L
156.04 161.695 L
164.6 161.8 L
173.16 161.656 L
181.72 161.154 L
190.28 160.212 L
198.84 158.918 L
207.4 156.959 L
215.96 154.097 L
224.52 150.055 L
233.08 144.2 L
241.64 136.555 L
250.2 127.418 L
258.76 117.197 L
267.32 106.743 L
275.88 97.324 L
284.44 90.373 L
293 86.478 L
301.56 84.759 L
310.12 86.465 L
318.68 90.187 L
327.24 95.238 L
335.8 100.697 L
344.36 105.737 L
352.92 109.729 L
361.48 112.076 L
370.04 112.686 L
378.6 112.732 L
387.16 112.749 L
395.72 112.755 L
404.28 112.755 L
412.84 112.754 L
421.4 112.753 L
429.96 112.752 L
438.52 112.751 L
447.08 112.75 L
455.64 112.75 L
464.2 112.75 L
472.76 112.75 L
481.32 112.75 L
489.88 112.75 L
498.44 112.75 L
507 112.75 L
507.043 112.75 L
S
GR
GS
[0.75 0 0 0.75 0 0] CT
0 0 1 RC
2 setlinecap
10.0 ML
N
79 112.75 M
87.56 152.296 L
96.12 155.967 L
104.68 159.52 L
113.24 160.346 L
121.8 161.095 L
130.36 161.647 L
138.92 161.779 L
147.48 161.256 L
156.04 160.023 L
164.6 158.355 L
173.16 156.086 L
181.72 153.229 L
190.28 149.845 L
198.84 145.799 L
207.4 141.383 L
215.96 136.945 L
224.52 132.639 L
233.08 128.589 L
241.64 124.878 L
250.2 121.555 L
258.76 118.633 L
267.32 116.095 L
275.88 113.908 L
284.44 112.018 L
293 110.379 L
301.56 108.942 L
310.12 107.667 L
318.68 106.441 L
327.24 102.84 L
335.8 100.457 L
344.36 101.455 L
352.92 103.244 L
361.48 104.59 L
370.04 106.26 L
378.6 107.761 L
387.16 108.99 L
395.72 109.952 L
404.28 110.687 L
412.84 111.239 L
421.4 111.648 L
429.96 111.949 L
438.52 112.169 L
447.08 112.329 L
455.64 112.445 L
464.2 112.53 L
472.76 112.593 L
481.32 112.641 L
489.88 112.68 L
498.44 112.706 L
507 112.729 L
507.043 112.729 L
S
GR
%%Trailer
%%Pages: 1
%%EOF
