%!PS-Adobe-3.0 EPSF-3.0
%%Creator: (MATLAB, The Mathworks, Inc. Version 8.4.0.150421 \(R2014b\). Operating System: Windows 8)
%%Title: C:/Users/oravec/skola/papers/y2016/cdc16/nonsym_lmi_rmpc/nonsym_lmi_rmpc/figs/y1.eps
%%CreationDate: 2016-05-13T17:47:21
%%Pages: (atend)
%%BoundingBox: 0 0 420 315
%%LanguageLevel: 2
%%EndComments
%%BeginProlog
%%BeginResource: procset (Apache XML Graphics Std ProcSet) 1.2 0
%%Version: 1.2 0
%%Copyright: (Copyright 2001-2003,2010 The Apache Software Foundation. License terms: http://www.apache.org/licenses/LICENSE-2.0)
/bd{bind def}bind def
/ld{load def}bd
/GR/grestore ld
/M/moveto ld
/LJ/setlinejoin ld
/C/curveto ld
/f/fill ld
/LW/setlinewidth ld
/GC/setgray ld
/t/show ld
/N/newpath ld
/CT/concat ld
/cp/closepath ld
/S/stroke ld
/L/lineto ld
/CC/setcmykcolor ld
/A/ashow ld
/GS/gsave ld
/RC/setrgbcolor ld
/RM/rmoveto ld
/ML/setmiterlimit ld
/re {4 2 roll M
1 index 0 rlineto
0 exch rlineto
neg 0 rlineto
cp } bd
/_ctm matrix def
/_tm matrix def
/BT { _ctm currentmatrix pop matrix _tm copy pop 0 0 moveto } bd
/ET { _ctm setmatrix } bd
/iTm { _ctm setmatrix _tm concat } bd
/Tm { _tm astore pop iTm 0 0 moveto } bd
/ux 0.0 def
/uy 0.0 def
/F {
  /Tp exch def
  /Tf exch def
  Tf findfont Tp scalefont setfont
  /cf Tf def  /cs Tp def
} bd
/ULS {currentpoint /uy exch def /ux exch def} bd
/ULE {
  /Tcx currentpoint pop def
  gsave
  newpath
  cf findfont cs scalefont dup
  /FontMatrix get 0 get /Ts exch def /FontInfo get dup
  /UnderlinePosition get Ts mul /To exch def
  /UnderlineThickness get Ts mul /Tt exch def
  ux uy To add moveto  Tcx uy To add lineto
  Tt setlinewidth stroke
  grestore
} bd
/OLE {
  /Tcx currentpoint pop def
  gsave
  newpath
  cf findfont cs scalefont dup
  /FontMatrix get 0 get /Ts exch def /FontInfo get dup
  /UnderlinePosition get Ts mul /To exch def
  /UnderlineThickness get Ts mul /Tt exch def
  ux uy To add cs add moveto Tcx uy To add cs add lineto
  Tt setlinewidth stroke
  grestore
} bd
/SOE {
  /Tcx currentpoint pop def
  gsave
  newpath
  cf findfont cs scalefont dup
  /FontMatrix get 0 get /Ts exch def /FontInfo get dup
  /UnderlinePosition get Ts mul /To exch def
  /UnderlineThickness get Ts mul /Tt exch def
  ux uy To add cs 10 mul 26 idiv add moveto Tcx uy To add cs 10 mul 26 idiv add lineto
  Tt setlinewidth stroke
  grestore
} bd
/QT {
/Y22 exch store
/X22 exch store
/Y21 exch store
/X21 exch store
currentpoint
/Y21 load 2 mul add 3 div exch
/X21 load 2 mul add 3 div exch
/X21 load 2 mul /X22 load add 3 div
/Y21 load 2 mul /Y22 load add 3 div
/X22 load /Y22 load curveto
} bd
/SSPD {
dup length /d exch dict def
{
/v exch def
/k exch def
currentpagedevice k known {
/cpdv currentpagedevice k get def
v cpdv ne {
/upd false def
/nullv v type /nulltype eq def
/nullcpdv cpdv type /nulltype eq def
nullv nullcpdv or
{
/upd true def
} {
/sametype v type cpdv type eq def
sametype {
v type /arraytype eq {
/vlen v length def
/cpdvlen cpdv length def
vlen cpdvlen eq {
0 1 vlen 1 sub {
/i exch def
/obj v i get def
/cpdobj cpdv i get def
obj cpdobj ne {
/upd true def
exit
} if
} for
} {
/upd true def
} ifelse
} {
v type /dicttype eq {
v {
/dv exch def
/dk exch def
/cpddv cpdv dk get def
dv cpddv ne {
/upd true def
exit
} if
} forall
} {
/upd true def
} ifelse
} ifelse
} if
} ifelse
upd true eq {
d k v put
} if
} if
} if
} forall
d length 0 gt {
d setpagedevice
} if
} bd
%%EndResource
%%BeginResource: procset (Apache XML Graphics EPS ProcSet) 1.0 0
%%Version: 1.0 0
%%Copyright: (Copyright 2002-2003 The Apache Software Foundation. License terms: http://www.apache.org/licenses/LICENSE-2.0)
/BeginEPSF { %def
/b4_Inc_state save def         % Save state for cleanup
/dict_count countdictstack def % Count objects on dict stack
/op_count count 1 sub def      % Count objects on operand stack
userdict begin                 % Push userdict on dict stack
/showpage { } def              % Redefine showpage, { } = null proc
0 setgray 0 setlinecap         % Prepare graphics state
1 setlinewidth 0 setlinejoin
10 setmiterlimit [ ] 0 setdash newpath
/languagelevel where           % If level not equal to 1 then
{pop languagelevel             % set strokeadjust and
1 ne                           % overprint to their defaults.
{false setstrokeadjust false setoverprint
} if
} if
} bd
/EndEPSF { %def
count op_count sub {pop} repeat            % Clean up stacks
countdictstack dict_count sub {end} repeat
b4_Inc_state restore
} bd
%%EndResource
%FOPBeginFontDict
%%IncludeResource: font Courier-Bold
%%IncludeResource: font Helvetica
%%IncludeResource: font Courier-BoldOblique
%%IncludeResource: font Courier-Oblique
%%IncludeResource: font Times-Roman
%%IncludeResource: font Helvetica-BoldOblique
%%IncludeResource: font Helvetica-Bold
%%IncludeResource: font Helvetica-Oblique
%%IncludeResource: font Times-BoldItalic
%%IncludeResource: font Courier
%%IncludeResource: font Times-Italic
%%IncludeResource: font Times-Bold
%%IncludeResource: font Symbol
%%IncludeResource: font ZapfDingbats
%FOPEndFontDict
%%BeginResource: encoding WinAnsiEncoding
/WinAnsiEncoding [
/.notdef /.notdef /.notdef /.notdef /.notdef
/.notdef /.notdef /.notdef /.notdef /.notdef
/.notdef /.notdef /.notdef /.notdef /.notdef
/.notdef /.notdef /.notdef /.notdef /.notdef
/.notdef /.notdef /.notdef /.notdef /.notdef
/.notdef /.notdef /.notdef /.notdef /.notdef
/.notdef /.notdef /space /exclam /quotedbl
/numbersign /dollar /percent /ampersand /quotesingle
/parenleft /parenright /asterisk /plus /comma
/hyphen /period /slash /zero /one
/two /three /four /five /six
/seven /eight /nine /colon /semicolon
/less /equal /greater /question /at
/A /B /C /D /E
/F /G /H /I /J
/K /L /M /N /O
/P /Q /R /S /T
/U /V /W /X /Y
/Z /bracketleft /backslash /bracketright /asciicircum
/underscore /quoteleft /a /b /c
/d /e /f /g /h
/i /j /k /l /m
/n /o /p /q /r
/s /t /u /v /w
/x /y /z /braceleft /bar
/braceright /asciitilde /bullet /Euro /bullet
/quotesinglbase /florin /quotedblbase /ellipsis /dagger
/daggerdbl /circumflex /perthousand /Scaron /guilsinglleft
/OE /bullet /Zcaron /bullet /bullet
/quoteleft /quoteright /quotedblleft /quotedblright /bullet
/endash /emdash /asciitilde /trademark /scaron
/guilsinglright /oe /bullet /zcaron /Ydieresis
/space /exclamdown /cent /sterling /currency
/yen /brokenbar /section /dieresis /copyright
/ordfeminine /guillemotleft /logicalnot /sfthyphen /registered
/macron /degree /plusminus /twosuperior /threesuperior
/acute /mu /paragraph /middot /cedilla
/onesuperior /ordmasculine /guillemotright /onequarter /onehalf
/threequarters /questiondown /Agrave /Aacute /Acircumflex
/Atilde /Adieresis /Aring /AE /Ccedilla
/Egrave /Eacute /Ecircumflex /Edieresis /Igrave
/Iacute /Icircumflex /Idieresis /Eth /Ntilde
/Ograve /Oacute /Ocircumflex /Otilde /Odieresis
/multiply /Oslash /Ugrave /Uacute /Ucircumflex
/Udieresis /Yacute /Thorn /germandbls /agrave
/aacute /acircumflex /atilde /adieresis /aring
/ae /ccedilla /egrave /eacute /ecircumflex
/edieresis /igrave /iacute /icircumflex /idieresis
/eth /ntilde /ograve /oacute /ocircumflex
/otilde /odieresis /divide /oslash /ugrave
/uacute /ucircumflex /udieresis /yacute /thorn
/ydieresis
] def
%%EndResource
%FOPBeginFontReencode
/Courier-Bold findfont
dup length dict begin
  {1 index /FID ne {def} {pop pop} ifelse} forall
  /Encoding WinAnsiEncoding def
  currentdict
end
/Courier-Bold exch definefont pop
/Helvetica findfont
dup length dict begin
  {1 index /FID ne {def} {pop pop} ifelse} forall
  /Encoding WinAnsiEncoding def
  currentdict
end
/Helvetica exch definefont pop
/Courier-BoldOblique findfont
dup length dict begin
  {1 index /FID ne {def} {pop pop} ifelse} forall
  /Encoding WinAnsiEncoding def
  currentdict
end
/Courier-BoldOblique exch definefont pop
/Courier-Oblique findfont
dup length dict begin
  {1 index /FID ne {def} {pop pop} ifelse} forall
  /Encoding WinAnsiEncoding def
  currentdict
end
/Courier-Oblique exch definefont pop
/Times-Roman findfont
dup length dict begin
  {1 index /FID ne {def} {pop pop} ifelse} forall
  /Encoding WinAnsiEncoding def
  currentdict
end
/Times-Roman exch definefont pop
/Helvetica-BoldOblique findfont
dup length dict begin
  {1 index /FID ne {def} {pop pop} ifelse} forall
  /Encoding WinAnsiEncoding def
  currentdict
end
/Helvetica-BoldOblique exch definefont pop
/Helvetica-Bold findfont
dup length dict begin
  {1 index /FID ne {def} {pop pop} ifelse} forall
  /Encoding WinAnsiEncoding def
  currentdict
end
/Helvetica-Bold exch definefont pop
/Helvetica-Oblique findfont
dup length dict begin
  {1 index /FID ne {def} {pop pop} ifelse} forall
  /Encoding WinAnsiEncoding def
  currentdict
end
/Helvetica-Oblique exch definefont pop
/Times-BoldItalic findfont
dup length dict begin
  {1 index /FID ne {def} {pop pop} ifelse} forall
  /Encoding WinAnsiEncoding def
  currentdict
end
/Times-BoldItalic exch definefont pop
/Courier findfont
dup length dict begin
  {1 index /FID ne {def} {pop pop} ifelse} forall
  /Encoding WinAnsiEncoding def
  currentdict
end
/Courier exch definefont pop
/Times-Italic findfont
dup length dict begin
  {1 index /FID ne {def} {pop pop} ifelse} forall
  /Encoding WinAnsiEncoding def
  currentdict
end
/Times-Italic exch definefont pop
/Times-Bold findfont
dup length dict begin
  {1 index /FID ne {def} {pop pop} ifelse} forall
  /Encoding WinAnsiEncoding def
  currentdict
end
/Times-Bold exch definefont pop
%FOPEndFontReencode
%%EndProlog
%%Page: 1 1
%%PageBoundingBox: 0 0 420 315
%%BeginPageSetup
[1 0 0 -1 0 315] CT
%%EndPageSetup
GS
[0.75 0 0 0.75 0 0] CT
1 GC
N
0 0 560 420 re
f
GR
GS
[0.75 0 0 0.75 0 0] CT
1 GC
N
0 0 560 420 re
f
GR
GS
[0.75 0 0 0.75 0 0] CT
1 GC
N
73 358 M
507 358 L
507 31 L
73 31 L
cp
f
GR
GS
[0.75 0 0 0.75 217.5 295.04823] CT
0.149 GC
/Helvetica 24 F
GS
[1 0 0 1 0 0] CT
-3.334 22.119 moveto 
1 -1 scale
(t) t 
GR
GR
GS
[0.75 0 0 0.75 0 0] CT
0.149 GC
2 setlinecap
10.0 ML
N
73 358 M
507 358 L
S
GR
GS
[0.75 0 0 0.75 0 0] CT
0.149 GC
2 setlinecap
10.0 ML
N
73 31 M
507 31 L
S
GR
GS
[0.75 0 0 0.75 0 0] CT
0.149 GC
2 setlinecap
10.0 ML
N
73 358 M
73 353.66 L
S
GR
GS
[0.75 0 0 0.75 0 0] CT
0.149 GC
2 setlinecap
10.0 ML
N
73 31 M
73 35.34 L
S
GR
GS
[0.75 0 0 0.75 0 0] CT
0.149 GC
2 setlinecap
10.0 ML
N
159.8 358 M
159.8 353.66 L
S
GR
GS
[0.75 0 0 0.75 0 0] CT
0.149 GC
2 setlinecap
10.0 ML
N
159.8 31 M
159.8 35.34 L
S
GR
GS
[0.75 0 0 0.75 0 0] CT
0.149 GC
2 setlinecap
10.0 ML
N
246.6 358 M
246.6 353.66 L
S
GR
GS
[0.75 0 0 0.75 0 0] CT
0.149 GC
2 setlinecap
10.0 ML
N
246.6 31 M
246.6 35.34 L
S
GR
GS
[0.75 0 0 0.75 0 0] CT
0.149 GC
2 setlinecap
10.0 ML
N
333.4 358 M
333.4 353.66 L
S
GR
GS
[0.75 0 0 0.75 0 0] CT
0.149 GC
2 setlinecap
10.0 ML
N
333.4 31 M
333.4 35.34 L
S
GR
GS
[0.75 0 0 0.75 0 0] CT
0.149 GC
2 setlinecap
10.0 ML
N
420.2 358 M
420.2 353.66 L
S
GR
GS
[0.75 0 0 0.75 0 0] CT
0.149 GC
2 setlinecap
10.0 ML
N
420.2 31 M
420.2 35.34 L
S
GR
GS
[0.75 0 0 0.75 0 0] CT
0.149 GC
2 setlinecap
10.0 ML
N
507 358 M
507 353.66 L
S
GR
GS
[0.75 0 0 0.75 0 0] CT
0.149 GC
2 setlinecap
10.0 ML
N
507 31 M
507 35.34 L
S
GR
GS
[0.75 0 0 0.75 54.75 274.10001] CT
0.149 GC
/Helvetica 24 F
GS
[1 0 0 1 0 0] CT
-6.674 22.119 moveto 
1 -1 scale
(0) t 
GR
GR
GS
[0.75 0 0 0.75 119.85 274.10001] CT
0.149 GC
/Helvetica 24 F
GS
[1 0 0 1 0 0] CT
-13.348 22.119 moveto 
1 -1 scale
(10) t 
GR
GR
GS
[0.75 0 0 0.75 184.95 274.10001] CT
0.149 GC
/Helvetica 24 F
GS
[1 0 0 1 0 0] CT
-13.348 22.119 moveto 
1 -1 scale
(20) t 
GR
GR
GS
[0.75 0 0 0.75 250.05 274.10001] CT
0.149 GC
/Helvetica 24 F
GS
[1 0 0 1 0 0] CT
-13.348 22.119 moveto 
1 -1 scale
(30) t 
GR
GR
GS
[0.75 0 0 0.75 315.15001 274.10001] CT
0.149 GC
/Helvetica 24 F
GS
[1 0 0 1 0 0] CT
-13.348 22.119 moveto 
1 -1 scale
(40) t 
GR
GR
GS
[0.75 0 0 0.75 380.25 274.10001] CT
0.149 GC
/Helvetica 24 F
GS
[1 0 0 1 0 0] CT
-13.348 22.119 moveto 
1 -1 scale
(50) t 
GR
GR
GS
[0 -0.75 0.75 0 26.12852 145.875] CT
0.149 GC
/Helvetica 24 F
GS
[1 0 0 1 0 0] CT
-12.674 -4.479 moveto 
1 -1 scale
(y1) t 
GR
GR
GS
[0.75 0 0 0.75 0 0] CT
0.149 GC
2 setlinecap
10.0 ML
N
73 358 M
73 31 L
S
GR
GS
[0.75 0 0 0.75 0 0] CT
0.149 GC
2 setlinecap
10.0 ML
N
507 358 M
507 31 L
S
GR
GS
[0.75 0 0 0.75 0 0] CT
0.149 GC
2 setlinecap
10.0 ML
N
73 358 M
77.34 358 L
S
GR
GS
[0.75 0 0 0.75 0 0] CT
0.149 GC
2 setlinecap
10.0 ML
N
507 358 M
502.66 358 L
S
GR
GS
[0.75 0 0 0.75 0 0] CT
0.149 GC
2 setlinecap
10.0 ML
N
73 348.382 M
77.34 348.382 L
S
GR
GS
[0.75 0 0 0.75 0 0] CT
0.149 GC
2 setlinecap
10.0 ML
N
507 348.382 M
502.66 348.382 L
S
GR
GS
[0.75 0 0 0.75 0 0] CT
0.149 GC
2 setlinecap
10.0 ML
N
73 338.765 M
77.34 338.765 L
S
GR
GS
[0.75 0 0 0.75 0 0] CT
0.149 GC
2 setlinecap
10.0 ML
N
507 338.765 M
502.66 338.765 L
S
GR
GS
[0.75 0 0 0.75 0 0] CT
0.149 GC
2 setlinecap
10.0 ML
N
73 329.147 M
77.34 329.147 L
S
GR
GS
[0.75 0 0 0.75 0 0] CT
0.149 GC
2 setlinecap
10.0 ML
N
507 329.147 M
502.66 329.147 L
S
GR
GS
[0.75 0 0 0.75 0 0] CT
0.149 GC
2 setlinecap
10.0 ML
N
73 319.529 M
77.34 319.529 L
S
GR
GS
[0.75 0 0 0.75 0 0] CT
0.149 GC
2 setlinecap
10.0 ML
N
507 319.529 M
502.66 319.529 L
S
GR
GS
[0.75 0 0 0.75 0 0] CT
0.149 GC
2 setlinecap
10.0 ML
N
73 309.912 M
77.34 309.912 L
S
GR
GS
[0.75 0 0 0.75 0 0] CT
0.149 GC
2 setlinecap
10.0 ML
N
507 309.912 M
502.66 309.912 L
S
GR
GS
[0.75 0 0 0.75 0 0] CT
0.149 GC
2 setlinecap
10.0 ML
N
73 300.294 M
77.34 300.294 L
S
GR
GS
[0.75 0 0 0.75 0 0] CT
0.149 GC
2 setlinecap
10.0 ML
N
507 300.294 M
502.66 300.294 L
S
GR
GS
[0.75 0 0 0.75 0 0] CT
0.149 GC
2 setlinecap
10.0 ML
N
73 290.676 M
77.34 290.676 L
S
GR
GS
[0.75 0 0 0.75 0 0] CT
0.149 GC
2 setlinecap
10.0 ML
N
507 290.676 M
502.66 290.676 L
S
GR
GS
[0.75 0 0 0.75 0 0] CT
0.149 GC
2 setlinecap
10.0 ML
N
73 281.059 M
77.34 281.059 L
S
GR
GS
[0.75 0 0 0.75 0 0] CT
0.149 GC
2 setlinecap
10.0 ML
N
507 281.059 M
502.66 281.059 L
S
GR
GS
[0.75 0 0 0.75 0 0] CT
0.149 GC
2 setlinecap
10.0 ML
N
73 271.441 M
77.34 271.441 L
S
GR
GS
[0.75 0 0 0.75 0 0] CT
0.149 GC
2 setlinecap
10.0 ML
N
507 271.441 M
502.66 271.441 L
S
GR
GS
[0.75 0 0 0.75 0 0] CT
0.149 GC
2 setlinecap
10.0 ML
N
73 261.824 M
77.34 261.824 L
S
GR
GS
[0.75 0 0 0.75 0 0] CT
0.149 GC
2 setlinecap
10.0 ML
N
507 261.824 M
502.66 261.824 L
S
GR
GS
[0.75 0 0 0.75 0 0] CT
0.149 GC
2 setlinecap
10.0 ML
N
73 252.206 M
77.34 252.206 L
S
GR
GS
[0.75 0 0 0.75 0 0] CT
0.149 GC
2 setlinecap
10.0 ML
N
507 252.206 M
502.66 252.206 L
S
GR
GS
[0.75 0 0 0.75 0 0] CT
0.149 GC
2 setlinecap
10.0 ML
N
73 242.588 M
77.34 242.588 L
S
GR
GS
[0.75 0 0 0.75 0 0] CT
0.149 GC
2 setlinecap
10.0 ML
N
507 242.588 M
502.66 242.588 L
S
GR
GS
[0.75 0 0 0.75 0 0] CT
0.149 GC
2 setlinecap
10.0 ML
N
73 232.971 M
77.34 232.971 L
S
GR
GS
[0.75 0 0 0.75 0 0] CT
0.149 GC
2 setlinecap
10.0 ML
N
507 232.971 M
502.66 232.971 L
S
GR
GS
[0.75 0 0 0.75 0 0] CT
0.149 GC
2 setlinecap
10.0 ML
N
73 223.353 M
77.34 223.353 L
S
GR
GS
[0.75 0 0 0.75 0 0] CT
0.149 GC
2 setlinecap
10.0 ML
N
507 223.353 M
502.66 223.353 L
S
GR
GS
[0.75 0 0 0.75 0 0] CT
0.149 GC
2 setlinecap
10.0 ML
N
73 213.735 M
77.34 213.735 L
S
GR
GS
[0.75 0 0 0.75 0 0] CT
0.149 GC
2 setlinecap
10.0 ML
N
507 213.735 M
502.66 213.735 L
S
GR
GS
[0.75 0 0 0.75 0 0] CT
0.149 GC
2 setlinecap
10.0 ML
N
73 204.118 M
77.34 204.118 L
S
GR
GS
[0.75 0 0 0.75 0 0] CT
0.149 GC
2 setlinecap
10.0 ML
N
507 204.118 M
502.66 204.118 L
S
GR
GS
[0.75 0 0 0.75 0 0] CT
0.149 GC
2 setlinecap
10.0 ML
N
73 194.5 M
77.34 194.5 L
S
GR
GS
[0.75 0 0 0.75 0 0] CT
0.149 GC
2 setlinecap
10.0 ML
N
507 194.5 M
502.66 194.5 L
S
GR
GS
[0.75 0 0 0.75 0 0] CT
0.149 GC
2 setlinecap
10.0 ML
N
73 184.882 M
77.34 184.882 L
S
GR
GS
[0.75 0 0 0.75 0 0] CT
0.149 GC
2 setlinecap
10.0 ML
N
507 184.882 M
502.66 184.882 L
S
GR
GS
[0.75 0 0 0.75 0 0] CT
0.149 GC
2 setlinecap
10.0 ML
N
73 175.265 M
77.34 175.265 L
S
GR
GS
[0.75 0 0 0.75 0 0] CT
0.149 GC
2 setlinecap
10.0 ML
N
507 175.265 M
502.66 175.265 L
S
GR
GS
[0.75 0 0 0.75 0 0] CT
0.149 GC
2 setlinecap
10.0 ML
N
73 165.647 M
77.34 165.647 L
S
GR
GS
[0.75 0 0 0.75 0 0] CT
0.149 GC
2 setlinecap
10.0 ML
N
507 165.647 M
502.66 165.647 L
S
GR
GS
[0.75 0 0 0.75 0 0] CT
0.149 GC
2 setlinecap
10.0 ML
N
73 156.029 M
77.34 156.029 L
S
GR
GS
[0.75 0 0 0.75 0 0] CT
0.149 GC
2 setlinecap
10.0 ML
N
507 156.029 M
502.66 156.029 L
S
GR
GS
[0.75 0 0 0.75 0 0] CT
0.149 GC
2 setlinecap
10.0 ML
N
73 146.412 M
77.34 146.412 L
S
GR
GS
[0.75 0 0 0.75 0 0] CT
0.149 GC
2 setlinecap
10.0 ML
N
507 146.412 M
502.66 146.412 L
S
GR
GS
[0.75 0 0 0.75 0 0] CT
0.149 GC
2 setlinecap
10.0 ML
N
73 136.794 M
77.34 136.794 L
S
GR
GS
[0.75 0 0 0.75 0 0] CT
0.149 GC
2 setlinecap
10.0 ML
N
507 136.794 M
502.66 136.794 L
S
GR
GS
[0.75 0 0 0.75 0 0] CT
0.149 GC
2 setlinecap
10.0 ML
N
73 127.176 M
77.34 127.176 L
S
GR
GS
[0.75 0 0 0.75 0 0] CT
0.149 GC
2 setlinecap
10.0 ML
N
507 127.176 M
502.66 127.176 L
S
GR
GS
[0.75 0 0 0.75 0 0] CT
0.149 GC
2 setlinecap
10.0 ML
N
73 117.559 M
77.34 117.559 L
S
GR
GS
[0.75 0 0 0.75 0 0] CT
0.149 GC
2 setlinecap
10.0 ML
N
507 117.559 M
502.66 117.559 L
S
GR
GS
[0.75 0 0 0.75 0 0] CT
0.149 GC
2 setlinecap
10.0 ML
N
73 107.941 M
77.34 107.941 L
S
GR
GS
[0.75 0 0 0.75 0 0] CT
0.149 GC
2 setlinecap
10.0 ML
N
507 107.941 M
502.66 107.941 L
S
GR
GS
[0.75 0 0 0.75 0 0] CT
0.149 GC
2 setlinecap
10.0 ML
N
73 98.324 M
77.34 98.324 L
S
GR
GS
[0.75 0 0 0.75 0 0] CT
0.149 GC
2 setlinecap
10.0 ML
N
507 98.324 M
502.66 98.324 L
S
GR
GS
[0.75 0 0 0.75 0 0] CT
0.149 GC
2 setlinecap
10.0 ML
N
73 88.706 M
77.34 88.706 L
S
GR
GS
[0.75 0 0 0.75 0 0] CT
0.149 GC
2 setlinecap
10.0 ML
N
507 88.706 M
502.66 88.706 L
S
GR
GS
[0.75 0 0 0.75 0 0] CT
0.149 GC
2 setlinecap
10.0 ML
N
73 79.088 M
77.34 79.088 L
S
GR
GS
[0.75 0 0 0.75 0 0] CT
0.149 GC
2 setlinecap
10.0 ML
N
507 79.088 M
502.66 79.088 L
S
GR
GS
[0.75 0 0 0.75 0 0] CT
0.149 GC
2 setlinecap
10.0 ML
N
73 69.471 M
77.34 69.471 L
S
GR
GS
[0.75 0 0 0.75 0 0] CT
0.149 GC
2 setlinecap
10.0 ML
N
507 69.471 M
502.66 69.471 L
S
GR
GS
[0.75 0 0 0.75 0 0] CT
0.149 GC
2 setlinecap
10.0 ML
N
73 59.853 M
77.34 59.853 L
S
GR
GS
[0.75 0 0 0.75 0 0] CT
0.149 GC
2 setlinecap
10.0 ML
N
507 59.853 M
502.66 59.853 L
S
GR
GS
[0.75 0 0 0.75 0 0] CT
0.149 GC
2 setlinecap
10.0 ML
N
73 50.235 M
77.34 50.235 L
S
GR
GS
[0.75 0 0 0.75 0 0] CT
0.149 GC
2 setlinecap
10.0 ML
N
507 50.235 M
502.66 50.235 L
S
GR
GS
[0.75 0 0 0.75 0 0] CT
0.149 GC
2 setlinecap
10.0 ML
N
73 40.618 M
77.34 40.618 L
S
GR
GS
[0.75 0 0 0.75 0 0] CT
0.149 GC
2 setlinecap
10.0 ML
N
507 40.618 M
502.66 40.618 L
S
GR
GS
[0.75 0 0 0.75 0 0] CT
0.149 GC
2 setlinecap
10.0 ML
N
73 31 M
77.34 31 L
S
GR
GS
[0.75 0 0 0.75 0 0] CT
0.149 GC
2 setlinecap
10.0 ML
N
507 31 M
502.66 31 L
S
GR
GS
[0.75 0 0 0.75 49.15 268.5] CT
0.149 GC
/Helvetica 24 F
GS
[1 0 0 1 0 0] CT
-21.34 8.82 moveto 
1 -1 scale
(-2) t 
GR
GR
GS
[0.75 0 0 0.75 49.15 261.28677] CT
0.149 GC
/Helvetica 24 F
GS
[1 0 0 1 0 0] CT
-13.336 8.82 moveto 
1 -1 scale
(  ) t 
GR
GR
GS
[0.75 0 0 0.75 49.15 254.07353] CT
0.149 GC
/Helvetica 24 F
GS
[1 0 0 1 0 0] CT
-20.016 8.82 moveto 
1 -1 scale
( 0) t 
GR
GR
GS
[0.75 0 0 0.75 49.15 246.8603] CT
0.149 GC
/Helvetica 24 F
GS
[1 0 0 1 0 0] CT
-13.336 8.82 moveto 
1 -1 scale
(  ) t 
GR
GR
GS
[0.75 0 0 0.75 49.15 239.64706] CT
0.149 GC
/Helvetica 24 F
GS
[1 0 0 1 0 0] CT
-20.016 8.82 moveto 
1 -1 scale
( 2) t 
GR
GR
GS
[0.75 0 0 0.75 49.15 232.43383] CT
0.149 GC
/Helvetica 24 F
GS
[1 0 0 1 0 0] CT
-13.336 8.82 moveto 
1 -1 scale
(  ) t 
GR
GR
GS
[0.75 0 0 0.75 49.15 225.2206] CT
0.149 GC
/Helvetica 24 F
GS
[1 0 0 1 0 0] CT
-20.016 8.82 moveto 
1 -1 scale
( 4) t 
GR
GR
GS
[0.75 0 0 0.75 49.15 218.00736] CT
0.149 GC
/Helvetica 24 F
GS
[1 0 0 1 0 0] CT
-13.336 8.82 moveto 
1 -1 scale
(  ) t 
GR
GR
GS
[0.75 0 0 0.75 49.15 210.79413] CT
0.149 GC
/Helvetica 24 F
GS
[1 0 0 1 0 0] CT
-20.016 8.82 moveto 
1 -1 scale
( 6) t 
GR
GR
GS
[0.75 0 0 0.75 49.15 203.58087] CT
0.149 GC
/Helvetica 24 F
GS
[1 0 0 1 0 0] CT
-13.336 8.82 moveto 
1 -1 scale
(  ) t 
GR
GR
GS
[0.75 0 0 0.75 49.15 196.36764] CT
0.149 GC
/Helvetica 24 F
GS
[1 0 0 1 0 0] CT
-20.016 8.82 moveto 
1 -1 scale
( 8) t 
GR
GR
GS
[0.75 0 0 0.75 49.15 189.15442] CT
0.149 GC
/Helvetica 24 F
GS
[1 0 0 1 0 0] CT
-13.336 8.82 moveto 
1 -1 scale
(  ) t 
GR
GR
GS
[0.75 0 0 0.75 49.15 181.94118] CT
0.149 GC
/Helvetica 24 F
GS
[1 0 0 1 0 0] CT
-26.695 8.82 moveto 
1 -1 scale
(10) t 
GR
GR
GS
[0.75 0 0 0.75 49.15 174.72794] CT
0.149 GC
/Helvetica 24 F
GS
[1 0 0 1 0 0] CT
-13.336 8.82 moveto 
1 -1 scale
(  ) t 
GR
GR
GS
[0.75 0 0 0.75 49.15 167.5147] CT
0.149 GC
/Helvetica 24 F
GS
[1 0 0 1 0 0] CT
-26.695 8.82 moveto 
1 -1 scale
(12) t 
GR
GR
GS
[0.75 0 0 0.75 49.15 160.30147] CT
0.149 GC
/Helvetica 24 F
GS
[1 0 0 1 0 0] CT
-13.336 8.82 moveto 
1 -1 scale
(  ) t 
GR
GR
GS
[0.75 0 0 0.75 49.15 153.08823] CT
0.149 GC
/Helvetica 24 F
GS
[1 0 0 1 0 0] CT
-26.695 8.82 moveto 
1 -1 scale
(14) t 
GR
GR
GS
[0.75 0 0 0.75 49.15 145.875] CT
0.149 GC
/Helvetica 24 F
GS
[1 0 0 1 0 0] CT
-13.336 8.82 moveto 
1 -1 scale
(  ) t 
GR
GR
GS
[0.75 0 0 0.75 49.15 138.66177] CT
0.149 GC
/Helvetica 24 F
GS
[1 0 0 1 0 0] CT
-26.695 8.82 moveto 
1 -1 scale
(16) t 
GR
GR
GS
[0.75 0 0 0.75 49.15 131.44853] CT
0.149 GC
/Helvetica 24 F
GS
[1 0 0 1 0 0] CT
-13.336 8.82 moveto 
1 -1 scale
(  ) t 
GR
GR
GS
[0.75 0 0 0.75 49.15 124.2353] CT
0.149 GC
/Helvetica 24 F
GS
[1 0 0 1 0 0] CT
-26.695 8.82 moveto 
1 -1 scale
(18) t 
GR
GR
GS
[0.75 0 0 0.75 49.15 117.02206] CT
0.149 GC
/Helvetica 24 F
GS
[1 0 0 1 0 0] CT
-13.336 8.82 moveto 
1 -1 scale
(  ) t 
GR
GR
GS
[0.75 0 0 0.75 49.15 109.80882] CT
0.149 GC
/Helvetica 24 F
GS
[1 0 0 1 0 0] CT
-26.695 8.82 moveto 
1 -1 scale
(20) t 
GR
GR
GS
[0.75 0 0 0.75 49.15 102.59558] CT
0.149 GC
/Helvetica 24 F
GS
[1 0 0 1 0 0] CT
-13.336 8.82 moveto 
1 -1 scale
(  ) t 
GR
GR
GS
[0.75 0 0 0.75 49.15 95.38235] CT
0.149 GC
/Helvetica 24 F
GS
[1 0 0 1 0 0] CT
-26.695 8.82 moveto 
1 -1 scale
(22) t 
GR
GR
GS
[0.75 0 0 0.75 49.15 88.16912] CT
0.149 GC
/Helvetica 24 F
GS
[1 0 0 1 0 0] CT
-13.336 8.82 moveto 
1 -1 scale
(  ) t 
GR
GR
GS
[0.75 0 0 0.75 49.15 80.95588] CT
0.149 GC
/Helvetica 24 F
GS
[1 0 0 1 0 0] CT
-26.695 8.82 moveto 
1 -1 scale
(24) t 
GR
GR
GS
[0.75 0 0 0.75 49.15 73.74265] CT
0.149 GC
/Helvetica 24 F
GS
[1 0 0 1 0 0] CT
-13.336 8.82 moveto 
1 -1 scale
(  ) t 
GR
GR
GS
[0.75 0 0 0.75 49.15 66.52941] CT
0.149 GC
/Helvetica 24 F
GS
[1 0 0 1 0 0] CT
-26.695 8.82 moveto 
1 -1 scale
(26) t 
GR
GR
GS
[0.75 0 0 0.75 49.15 59.31618] CT
0.149 GC
/Helvetica 24 F
GS
[1 0 0 1 0 0] CT
-13.336 8.82 moveto 
1 -1 scale
(  ) t 
GR
GR
GS
[0.75 0 0 0.75 49.15 52.10294] CT
0.149 GC
/Helvetica 24 F
GS
[1 0 0 1 0 0] CT
-26.695 8.82 moveto 
1 -1 scale
(28) t 
GR
GR
GS
[0.75 0 0 0.75 49.15 44.8897] CT
0.149 GC
/Helvetica 24 F
GS
[1 0 0 1 0 0] CT
-13.336 8.82 moveto 
1 -1 scale
(  ) t 
GR
GR
GS
[0.75 0 0 0.75 49.15 37.67647] CT
0.149 GC
/Helvetica 24 F
GS
[1 0 0 1 0 0] CT
-26.695 8.82 moveto 
1 -1 scale
(30) t 
GR
GR
GS
[0.75 0 0 0.75 49.15 30.46323] CT
0.149 GC
/Helvetica 24 F
GS
[1 0 0 1 0 0] CT
-13.336 8.82 moveto 
1 -1 scale
(  ) t 
GR
GR
GS
[0.75 0 0 0.75 49.15 23.25] CT
0.149 GC
/Helvetica 24 F
GS
[1 0 0 1 0 0] CT
-26.695 8.82 moveto 
1 -1 scale
(32) t 
GR
GR
GS
[0.75 0 0 0.75 0 0] CT
1 0 0 RC
[1 3] 0 setdash
2 LJ
N
73 338.765 M
507.043 338.765 L
S
GR
GS
[0.75 0 0 0.75 0 0] CT
0.2 0.702 0 RC
2 setlinecap
10.0 ML
N
73 348.382 M
81.68 309.335 L
90.36 284.591 L
99.04 273.819 L
107.72 275.687 L
116.4 287.218 L
125.08 303.718 L
133.76 317.11 L
142.44 327.433 L
151.12 334.723 L
159.8 339.008 L
168.48 340.294 L
177.16 339.774 L
185.84 339.367 L
194.52 339.08 L
203.2 338.9 L
211.88 338.804 L
220.56 338.767 L
229.24 338.759 L
237.92 338.758 L
246.6 338.76 L
255.28 338.762 L
263.96 338.763 L
272.64 338.764 L
281.32 338.764 L
290 338.765 L
298.68 338.765 L
307.36 338.765 L
316.04 338.765 L
324.72 338.765 L
333.4 338.765 L
342.08 338.765 L
350.76 338.765 L
359.44 338.765 L
368.12 338.765 L
376.8 338.765 L
385.48 338.765 L
394.16 338.765 L
402.84 338.765 L
411.52 338.765 L
420.2 338.765 L
428.88 338.765 L
437.56 338.765 L
446.24 338.765 L
454.92 338.765 L
463.6 338.765 L
472.28 338.765 L
480.96 338.765 L
489.64 338.765 L
498.32 338.765 L
507 338.765 L
S
GR
GS
[0.75 0 0 0.75 0 0] CT
0.2 0.702 0 RC
2 setlinecap
10.0 ML
N
73 348.382 M
81.68 309.912 L
90.36 283.402 L
99.04 269.379 L
107.72 267.344 L
116.4 275.154 L
125.08 289.103 L
133.76 303.128 L
142.44 314.992 L
151.12 324.591 L
159.8 331.805 L
168.48 336.493 L
177.16 338.488 L
185.84 338.785 L
194.52 338.774 L
203.2 338.769 L
211.88 338.767 L
220.56 338.765 L
229.24 338.765 L
237.92 338.765 L
246.6 338.765 L
255.28 338.765 L
263.96 338.765 L
272.64 338.765 L
281.32 338.765 L
290 338.765 L
298.68 338.765 L
307.36 338.765 L
316.04 338.765 L
324.72 338.765 L
333.4 338.765 L
342.08 338.765 L
350.76 338.765 L
359.44 338.765 L
368.12 338.765 L
376.8 338.765 L
385.48 338.765 L
394.16 338.765 L
402.84 338.765 L
411.52 338.765 L
420.2 338.765 L
428.88 338.765 L
437.56 338.765 L
446.24 338.765 L
454.92 338.765 L
463.6 338.765 L
472.28 338.765 L
480.96 338.765 L
489.64 338.765 L
498.32 338.765 L
507 338.765 L
S
GR
GS
[0.75 0 0 0.75 0 0] CT
0.2 0.702 0 RC
2 setlinecap
10.0 ML
N
73 348.382 M
81.68 311.643 L
90.36 288.351 L
99.04 278.19 L
107.72 279.927 L
116.4 290.676 L
125.08 305.854 L
133.76 318.099 L
142.44 327.461 L
151.12 333.978 L
159.8 337.669 L
168.48 338.685 L
177.16 338.789 L
185.84 338.782 L
194.52 338.775 L
203.2 338.771 L
211.88 338.768 L
220.56 338.766 L
229.24 338.765 L
237.92 338.765 L
246.6 338.765 L
255.28 338.765 L
263.96 338.765 L
272.64 338.765 L
281.32 338.765 L
290 338.765 L
298.68 338.765 L
307.36 338.765 L
316.04 338.765 L
324.72 338.765 L
333.4 338.765 L
342.08 338.765 L
350.76 338.765 L
359.44 338.765 L
368.12 338.765 L
376.8 338.765 L
385.48 338.765 L
394.16 338.765 L
402.84 338.765 L
411.52 338.765 L
420.2 338.765 L
428.88 338.765 L
437.56 338.765 L
446.24 338.765 L
454.92 338.765 L
463.6 338.765 L
472.28 338.765 L
480.96 338.765 L
489.64 338.765 L
498.32 338.765 L
507 338.765 L
S
GR
GS
[0.75 0 0 0.75 0 0] CT
0.2 0.702 0 RC
2 setlinecap
10.0 ML
N
73 348.382 M
81.68 312.22 L
90.36 287.301 L
99.04 274.114 L
107.72 272.211 L
116.4 279.491 L
125.08 292.306 L
133.76 303.24 L
142.44 312.266 L
151.12 319.483 L
159.8 325.112 L
168.48 329.38 L
177.16 332.52 L
185.84 334.744 L
194.52 336.263 L
203.2 337.263 L
211.88 337.897 L
220.56 338.283 L
229.24 338.508 L
237.92 338.634 L
246.6 338.701 L
255.28 338.735 L
263.96 338.751 L
272.64 338.759 L
281.32 338.762 L
290 338.764 L
298.68 338.764 L
307.36 338.765 L
316.04 338.765 L
324.72 338.765 L
333.4 338.765 L
342.08 338.765 L
350.76 338.765 L
359.44 338.765 L
368.12 338.765 L
376.8 338.765 L
385.48 338.765 L
394.16 338.765 L
402.84 338.765 L
411.52 338.765 L
420.2 338.765 L
428.88 338.765 L
437.56 338.765 L
446.24 338.765 L
454.92 338.765 L
463.6 338.765 L
472.28 338.765 L
480.96 338.765 L
489.64 338.765 L
498.32 338.765 L
507 338.765 L
S
GR
GS
[0.75 0 0 0.75 0 0] CT
0.2 0.702 0 RC
2 setlinecap
10.0 ML
N
73 348.382 M
81.68 309.335 L
90.36 284.591 L
99.04 273.819 L
107.72 275.687 L
116.4 287.218 L
125.08 303.718 L
133.76 317.11 L
142.44 327.433 L
151.12 334.723 L
159.8 339.008 L
168.48 340.294 L
177.16 339.774 L
185.84 339.367 L
194.52 339.08 L
203.2 338.9 L
211.88 338.804 L
220.56 338.767 L
229.24 338.759 L
237.92 338.758 L
246.6 338.76 L
255.28 338.762 L
263.96 338.763 L
272.64 338.764 L
281.32 338.764 L
290 338.765 L
298.68 338.765 L
307.36 338.765 L
316.04 338.765 L
324.72 338.765 L
333.4 338.765 L
342.08 338.765 L
350.76 338.765 L
359.44 338.765 L
368.12 338.765 L
376.8 338.765 L
385.48 338.765 L
394.16 338.765 L
402.84 338.765 L
411.52 338.765 L
420.2 338.765 L
428.88 338.765 L
437.56 338.765 L
446.24 338.765 L
454.92 338.765 L
463.6 338.765 L
472.28 338.765 L
480.96 338.765 L
489.64 338.765 L
498.32 338.765 L
507 338.765 L
S
GR
GS
[0.75 0 0 0.75 0 0] CT
0.2 0.702 0 RC
2 setlinecap
10.0 ML
N
73 348.382 M
81.68 309.912 L
90.36 285.711 L
99.04 275.463 L
107.72 277.34 L
116.4 287.557 L
125.08 300.859 L
133.76 311.245 L
142.44 318.92 L
151.12 324.554 L
159.8 328.688 L
168.48 331.714 L
177.16 333.886 L
185.84 335.422 L
194.52 336.494 L
203.2 337.234 L
211.88 337.74 L
220.56 338.083 L
229.24 338.314 L
237.92 338.468 L
246.6 338.57 L
255.28 338.637 L
263.96 338.681 L
272.64 338.71 L
281.32 338.728 L
290 338.741 L
298.68 338.75 L
307.36 338.755 L
316.04 338.759 L
324.72 338.761 L
333.4 338.762 L
342.08 338.763 L
350.76 338.764 L
359.44 338.764 L
368.12 338.764 L
376.8 338.764 L
385.48 338.764 L
394.16 338.765 L
402.84 338.765 L
411.52 338.765 L
420.2 338.765 L
428.88 338.765 L
437.56 338.765 L
446.24 338.765 L
454.92 338.765 L
463.6 338.765 L
472.28 338.765 L
480.96 338.765 L
489.64 338.765 L
498.32 338.765 L
507 338.765 L
S
GR
GS
[0.75 0 0 0.75 0 0] CT
0.2 0.702 0 RC
2 setlinecap
10.0 ML
N
73 348.382 M
81.68 311.643 L
90.36 288.351 L
99.04 278.19 L
107.72 279.927 L
116.4 290.676 L
125.08 305.854 L
133.76 318.099 L
142.44 327.461 L
151.12 333.978 L
159.8 337.669 L
168.48 338.685 L
177.16 338.789 L
185.84 338.782 L
194.52 338.775 L
203.2 338.771 L
211.88 338.768 L
220.56 338.766 L
229.24 338.765 L
237.92 338.765 L
246.6 338.765 L
255.28 338.765 L
263.96 338.765 L
272.64 338.765 L
281.32 338.765 L
290 338.765 L
298.68 338.765 L
307.36 338.765 L
316.04 338.765 L
324.72 338.765 L
333.4 338.765 L
342.08 338.765 L
350.76 338.765 L
359.44 338.765 L
368.12 338.765 L
376.8 338.765 L
385.48 338.765 L
394.16 338.765 L
402.84 338.765 L
411.52 338.765 L
420.2 338.765 L
428.88 338.765 L
437.56 338.765 L
446.24 338.765 L
454.92 338.765 L
463.6 338.765 L
472.28 338.765 L
480.96 338.765 L
489.64 338.765 L
498.32 338.765 L
507 338.765 L
S
GR
GS
[0.75 0 0 0.75 0 0] CT
0.2 0.702 0 RC
2 setlinecap
10.0 ML
N
73 348.382 M
81.68 312.22 L
90.36 289.471 L
99.04 279.837 L
107.72 281.605 L
116.4 291.069 L
125.08 302.808 L
133.76 311.848 L
142.44 318.563 L
151.12 323.64 L
159.8 327.501 L
168.48 330.445 L
177.16 332.665 L
185.84 334.315 L
194.52 335.532 L
203.2 336.422 L
211.88 337.071 L
220.56 337.542 L
229.24 337.883 L
237.92 338.13 L
246.6 338.308 L
255.28 338.436 L
263.96 338.528 L
272.64 338.594 L
281.32 338.641 L
290 338.675 L
298.68 338.699 L
307.36 338.717 L
316.04 338.73 L
324.72 338.741 L
333.4 338.749 L
342.08 338.754 L
350.76 338.757 L
359.44 338.76 L
368.12 338.761 L
376.8 338.762 L
385.48 338.763 L
394.16 338.763 L
402.84 338.764 L
411.52 338.764 L
420.2 338.764 L
428.88 338.764 L
437.56 338.764 L
446.24 338.765 L
454.92 338.765 L
463.6 338.765 L
472.28 338.765 L
480.96 338.765 L
489.64 338.765 L
498.32 338.765 L
507 338.765 L
S
GR
GS
[0.75 0 0 0.75 0 0] CT
0 0 1 RC
2 setlinecap
10.0 ML
N
73 348.382 M
81.68 309.335 L
90.36 274.956 L
99.04 245.05 L
107.72 219.413 L
116.4 197.847 L
125.08 180.209 L
133.76 166.363 L
142.44 156.177 L
151.12 149.468 L
159.8 146.042 L
168.48 145.707 L
177.16 148.268 L
185.84 153.52 L
194.52 161.25 L
203.2 171.234 L
211.88 183.228 L
220.56 196.953 L
229.24 212.081 L
237.92 228.204 L
246.6 244.831 L
255.28 261.411 L
263.96 277.346 L
272.64 292.042 L
281.32 304.971 L
290 315.77 L
298.68 324.296 L
307.36 330.565 L
316.04 334.774 L
324.72 337.262 L
333.4 338.452 L
342.08 338.805 L
350.76 338.792 L
359.44 338.779 L
368.12 338.771 L
376.8 338.767 L
385.48 338.765 L
394.16 338.765 L
402.84 338.764 L
411.52 338.764 L
420.2 338.764 L
428.88 338.765 L
437.56 338.765 L
446.24 338.765 L
454.92 338.765 L
463.6 338.765 L
472.28 338.765 L
480.96 338.765 L
489.64 338.765 L
498.32 338.765 L
507 338.765 L
S
GR
GS
[0.75 0 0 0.75 0 0] CT
0 0 1 RC
2 setlinecap
10.0 ML
N
73 348.382 M
81.68 309.912 L
90.36 273.767 L
99.04 240.033 L
107.72 208.773 L
116.4 180.042 L
125.08 153.913 L
133.76 130.471 L
142.44 109.783 L
151.12 91.904 L
159.8 76.876 L
168.48 64.73 L
177.16 55.465 L
185.84 49.051 L
194.52 45.43 L
203.2 44.538 L
211.88 46.295 L
220.56 50.602 L
229.24 57.331 L
237.92 66.325 L
246.6 77.388 L
255.28 90.277 L
263.96 104.721 L
272.64 120.425 L
281.32 137.076 L
290 154.353 L
298.68 171.932 L
307.36 189.501 L
316.04 206.772 L
324.72 223.488 L
333.4 239.434 L
342.08 254.435 L
350.76 268.347 L
359.44 281.054 L
368.12 292.47 L
376.8 302.54 L
385.48 311.257 L
394.16 318.653 L
402.84 324.641 L
411.52 329.275 L
420.2 332.709 L
428.88 335.119 L
437.56 336.715 L
446.24 337.706 L
454.92 338.274 L
463.6 338.568 L
472.28 338.701 L
480.96 338.75 L
489.64 338.764 L
498.32 338.768 L
507 338.769 L
S
GR
GS
[0.75 0 0 0.75 0 0] CT
0 0 1 RC
2 setlinecap
10.0 ML
N
73 348.382 M
81.68 311.643 L
90.36 279.295 L
99.04 251.153 L
107.72 227.03 L
116.4 206.74 L
125.08 190.168 L
133.76 177.192 L
142.44 167.667 L
151.12 161.405 L
159.8 158.225 L
168.48 157.948 L
177.16 160.392 L
185.84 165.366 L
194.52 172.666 L
203.2 182.08 L
211.88 193.374 L
220.56 206.277 L
229.24 220.468 L
237.92 235.547 L
246.6 251.037 L
255.28 266.409 L
263.96 281.105 L
272.64 294.587 L
281.32 306.406 L
290 316.28 L
298.68 324.108 L
307.36 329.919 L
316.04 333.927 L
324.72 336.448 L
333.4 337.849 L
342.08 338.5 L
350.76 338.723 L
359.44 338.766 L
368.12 338.77 L
376.8 338.77 L
385.48 338.768 L
394.16 338.767 L
402.84 338.766 L
411.52 338.765 L
420.2 338.765 L
428.88 338.765 L
437.56 338.765 L
446.24 338.765 L
454.92 338.765 L
463.6 338.765 L
472.28 338.765 L
480.96 338.765 L
489.64 338.765 L
498.32 338.765 L
507 338.765 L
S
GR
GS
[0.75 0 0 0.75 0 0] CT
0 0 1 RC
2 setlinecap
10.0 ML
N
73 348.382 M
81.68 312.22 L
90.36 278.244 L
99.04 246.535 L
107.72 217.155 L
116.4 190.155 L
125.08 165.626 L
133.76 143.647 L
142.44 124.282 L
151.12 107.585 L
159.8 93.594 L
168.48 82.314 L
177.16 73.731 L
185.84 67.812 L
194.52 64.511 L
203.2 63.773 L
211.88 65.518 L
220.56 69.646 L
229.24 76.031 L
237.92 84.516 L
246.6 94.902 L
255.28 106.95 L
263.96 120.395 L
272.64 134.953 L
281.32 150.325 L
290 166.211 L
298.68 182.313 L
307.36 198.351 L
316.04 214.073 L
324.72 229.259 L
333.4 243.728 L
342.08 257.337 L
350.76 269.971 L
359.44 281.545 L
368.12 292.002 L
376.8 301.319 L
385.48 309.502 L
394.16 316.574 L
402.84 322.431 L
411.52 327.093 L
420.2 330.682 L
428.88 333.347 L
437.56 335.25 L
446.24 336.561 L
454.92 337.431 L
463.6 337.987 L
472.28 338.329 L
480.96 338.531 L
489.64 338.644 L
498.32 338.705 L
507 338.736 L
S
GR
GS
[0.75 0 0 0.75 0 0] CT
0 0 1 RC
2 setlinecap
10.0 ML
N
73 348.382 M
81.68 309.335 L
90.36 274.956 L
99.04 245.05 L
107.72 219.413 L
116.4 197.847 L
125.08 180.209 L
133.76 166.363 L
142.44 156.177 L
151.12 149.468 L
159.8 146.042 L
168.48 145.707 L
177.16 148.268 L
185.84 153.52 L
194.52 161.25 L
203.2 171.234 L
211.88 183.228 L
220.56 196.953 L
229.24 212.081 L
237.92 228.204 L
246.6 244.831 L
255.28 261.411 L
263.96 277.346 L
272.64 292.042 L
281.32 304.971 L
290 315.77 L
298.68 324.296 L
307.36 330.565 L
316.04 334.774 L
324.72 337.262 L
333.4 338.452 L
342.08 338.805 L
350.76 338.792 L
359.44 338.779 L
368.12 338.771 L
376.8 338.767 L
385.48 338.765 L
394.16 338.765 L
402.84 338.764 L
411.52 338.764 L
420.2 338.764 L
428.88 338.765 L
437.56 338.765 L
446.24 338.765 L
454.92 338.765 L
463.6 338.765 L
472.28 338.765 L
480.96 338.765 L
489.64 338.765 L
498.32 338.765 L
507 338.765 L
S
GR
GS
[0.75 0 0 0.75 0 0] CT
0 0 1 RC
2 setlinecap
10.0 ML
N
73 348.382 M
81.68 309.912 L
90.36 276.076 L
99.04 246.799 L
107.72 222.034 L
116.4 201.558 L
125.08 185.158 L
133.76 172.621 L
142.44 163.719 L
151.12 158.201 L
159.8 155.794 L
168.48 156.215 L
177.16 159.168 L
185.84 164.34 L
194.52 171.409 L
203.2 180.035 L
211.88 189.875 L
220.56 200.6 L
229.24 211.907 L
237.92 223.52 L
246.6 235.197 L
255.28 246.73 L
263.96 257.942 L
272.64 268.69 L
281.32 278.858 L
290 288.356 L
298.68 297.112 L
307.36 305.075 L
316.04 312.204 L
324.72 318.457 L
333.4 323.643 L
342.08 327.717 L
350.76 330.839 L
359.44 333.168 L
368.12 334.862 L
376.8 336.073 L
385.48 336.925 L
394.16 337.518 L
402.84 337.926 L
411.52 338.204 L
420.2 338.392 L
428.88 338.518 L
437.56 338.602 L
446.24 338.658 L
454.92 338.694 L
463.6 338.718 L
472.28 338.734 L
480.96 338.744 L
489.64 338.752 L
498.32 338.757 L
507 338.759 L
S
GR
GS
[0.75 0 0 0.75 0 0] CT
0 0 1 RC
2 setlinecap
10.0 ML
N
73 348.382 M
81.68 311.643 L
90.36 279.295 L
99.04 251.153 L
107.72 227.03 L
116.4 206.74 L
125.08 190.168 L
133.76 177.192 L
142.44 167.667 L
151.12 161.405 L
159.8 158.225 L
168.48 157.948 L
177.16 160.392 L
185.84 165.366 L
194.52 172.666 L
203.2 182.08 L
211.88 193.374 L
220.56 206.277 L
229.24 220.468 L
237.92 235.547 L
246.6 251.037 L
255.28 266.409 L
263.96 281.105 L
272.64 294.587 L
281.32 306.406 L
290 316.28 L
298.68 324.108 L
307.36 329.919 L
316.04 333.927 L
324.72 336.448 L
333.4 337.849 L
342.08 338.5 L
350.76 338.723 L
359.44 338.766 L
368.12 338.77 L
376.8 338.77 L
385.48 338.768 L
394.16 338.767 L
402.84 338.766 L
411.52 338.765 L
420.2 338.765 L
428.88 338.765 L
437.56 338.765 L
446.24 338.765 L
454.92 338.765 L
463.6 338.765 L
472.28 338.765 L
480.96 338.765 L
489.64 338.765 L
498.32 338.765 L
507 338.765 L
S
GR
GS
[0.75 0 0 0.75 0 0] CT
0 0 1 RC
2 setlinecap
10.0 ML
N
73 348.382 M
81.68 312.22 L
90.36 280.414 L
99.04 252.906 L
107.72 229.635 L
116.4 210.392 L
125.08 194.976 L
133.76 183.189 L
142.44 174.821 L
151.12 169.636 L
159.8 167.377 L
168.48 167.775 L
177.16 170.545 L
185.84 175.387 L
194.52 181.99 L
203.2 190.024 L
211.88 199.16 L
220.56 209.085 L
229.24 219.514 L
237.92 230.193 L
246.6 240.902 L
255.28 251.456 L
263.96 261.701 L
272.64 271.517 L
281.32 280.808 L
290 289.501 L
298.68 297.541 L
307.36 304.888 L
316.04 311.514 L
324.72 317.393 L
333.4 322.371 L
342.08 326.371 L
350.76 329.506 L
359.44 331.928 L
368.12 333.753 L
376.8 335.11 L
385.48 336.109 L
394.16 336.841 L
402.84 337.374 L
411.52 337.761 L
420.2 338.041 L
428.88 338.243 L
437.56 338.389 L
446.24 338.494 L
454.92 338.57 L
463.6 338.624 L
472.28 338.663 L
480.96 338.69 L
489.64 338.71 L
498.32 338.725 L
507 338.737 L
S
GR
%%Trailer
%%Pages: 1
%%EOF
