%!PS-Adobe-3.0 EPSF-3.0
%%Creator: (MATLAB, The Mathworks, Inc. Version 8.4.0.150421 \(R2014b\). Operating System: Windows 8)
%%Title: C:/Users/oravec/skola/papers/y2016/cdc16/nonsym_lmi_rmpc/nonsym_lmi_rmpc/figs/y2.eps
%%CreationDate: 2016-05-13T17:47:14
%%Pages: (atend)
%%BoundingBox: 0 0 420 315
%%LanguageLevel: 2
%%EndComments
%%BeginProlog
%%BeginResource: procset (Apache XML Graphics Std ProcSet) 1.2 0
%%Version: 1.2 0
%%Copyright: (Copyright 2001-2003,2010 The Apache Software Foundation. License terms: http://www.apache.org/licenses/LICENSE-2.0)
/bd{bind def}bind def
/ld{load def}bd
/GR/grestore ld
/M/moveto ld
/LJ/setlinejoin ld
/C/curveto ld
/f/fill ld
/LW/setlinewidth ld
/GC/setgray ld
/t/show ld
/N/newpath ld
/CT/concat ld
/cp/closepath ld
/S/stroke ld
/L/lineto ld
/CC/setcmykcolor ld
/A/ashow ld
/GS/gsave ld
/RC/setrgbcolor ld
/RM/rmoveto ld
/ML/setmiterlimit ld
/re {4 2 roll M
1 index 0 rlineto
0 exch rlineto
neg 0 rlineto
cp } bd
/_ctm matrix def
/_tm matrix def
/BT { _ctm currentmatrix pop matrix _tm copy pop 0 0 moveto } bd
/ET { _ctm setmatrix } bd
/iTm { _ctm setmatrix _tm concat } bd
/Tm { _tm astore pop iTm 0 0 moveto } bd
/ux 0.0 def
/uy 0.0 def
/F {
  /Tp exch def
  /Tf exch def
  Tf findfont Tp scalefont setfont
  /cf Tf def  /cs Tp def
} bd
/ULS {currentpoint /uy exch def /ux exch def} bd
/ULE {
  /Tcx currentpoint pop def
  gsave
  newpath
  cf findfont cs scalefont dup
  /FontMatrix get 0 get /Ts exch def /FontInfo get dup
  /UnderlinePosition get Ts mul /To exch def
  /UnderlineThickness get Ts mul /Tt exch def
  ux uy To add moveto  Tcx uy To add lineto
  Tt setlinewidth stroke
  grestore
} bd
/OLE {
  /Tcx currentpoint pop def
  gsave
  newpath
  cf findfont cs scalefont dup
  /FontMatrix get 0 get /Ts exch def /FontInfo get dup
  /UnderlinePosition get Ts mul /To exch def
  /UnderlineThickness get Ts mul /Tt exch def
  ux uy To add cs add moveto Tcx uy To add cs add lineto
  Tt setlinewidth stroke
  grestore
} bd
/SOE {
  /Tcx currentpoint pop def
  gsave
  newpath
  cf findfont cs scalefont dup
  /FontMatrix get 0 get /Ts exch def /FontInfo get dup
  /UnderlinePosition get Ts mul /To exch def
  /UnderlineThickness get Ts mul /Tt exch def
  ux uy To add cs 10 mul 26 idiv add moveto Tcx uy To add cs 10 mul 26 idiv add lineto
  Tt setlinewidth stroke
  grestore
} bd
/QT {
/Y22 exch store
/X22 exch store
/Y21 exch store
/X21 exch store
currentpoint
/Y21 load 2 mul add 3 div exch
/X21 load 2 mul add 3 div exch
/X21 load 2 mul /X22 load add 3 div
/Y21 load 2 mul /Y22 load add 3 div
/X22 load /Y22 load curveto
} bd
/SSPD {
dup length /d exch dict def
{
/v exch def
/k exch def
currentpagedevice k known {
/cpdv currentpagedevice k get def
v cpdv ne {
/upd false def
/nullv v type /nulltype eq def
/nullcpdv cpdv type /nulltype eq def
nullv nullcpdv or
{
/upd true def
} {
/sametype v type cpdv type eq def
sametype {
v type /arraytype eq {
/vlen v length def
/cpdvlen cpdv length def
vlen cpdvlen eq {
0 1 vlen 1 sub {
/i exch def
/obj v i get def
/cpdobj cpdv i get def
obj cpdobj ne {
/upd true def
exit
} if
} for
} {
/upd true def
} ifelse
} {
v type /dicttype eq {
v {
/dv exch def
/dk exch def
/cpddv cpdv dk get def
dv cpddv ne {
/upd true def
exit
} if
} forall
} {
/upd true def
} ifelse
} ifelse
} if
} ifelse
upd true eq {
d k v put
} if
} if
} if
} forall
d length 0 gt {
d setpagedevice
} if
} bd
%%EndResource
%%BeginResource: procset (Apache XML Graphics EPS ProcSet) 1.0 0
%%Version: 1.0 0
%%Copyright: (Copyright 2002-2003 The Apache Software Foundation. License terms: http://www.apache.org/licenses/LICENSE-2.0)
/BeginEPSF { %def
/b4_Inc_state save def         % Save state for cleanup
/dict_count countdictstack def % Count objects on dict stack
/op_count count 1 sub def      % Count objects on operand stack
userdict begin                 % Push userdict on dict stack
/showpage { } def              % Redefine showpage, { } = null proc
0 setgray 0 setlinecap         % Prepare graphics state
1 setlinewidth 0 setlinejoin
10 setmiterlimit [ ] 0 setdash newpath
/languagelevel where           % If level not equal to 1 then
{pop languagelevel             % set strokeadjust and
1 ne                           % overprint to their defaults.
{false setstrokeadjust false setoverprint
} if
} if
} bd
/EndEPSF { %def
count op_count sub {pop} repeat            % Clean up stacks
countdictstack dict_count sub {end} repeat
b4_Inc_state restore
} bd
%%EndResource
%FOPBeginFontDict
%%IncludeResource: font Courier-Bold
%%IncludeResource: font Helvetica
%%IncludeResource: font Courier-BoldOblique
%%IncludeResource: font Courier-Oblique
%%IncludeResource: font Times-Roman
%%IncludeResource: font Helvetica-BoldOblique
%%IncludeResource: font Helvetica-Bold
%%IncludeResource: font Helvetica-Oblique
%%IncludeResource: font Times-BoldItalic
%%IncludeResource: font Courier
%%IncludeResource: font Times-Italic
%%IncludeResource: font Times-Bold
%%IncludeResource: font Symbol
%%IncludeResource: font ZapfDingbats
%FOPEndFontDict
%%BeginResource: encoding WinAnsiEncoding
/WinAnsiEncoding [
/.notdef /.notdef /.notdef /.notdef /.notdef
/.notdef /.notdef /.notdef /.notdef /.notdef
/.notdef /.notdef /.notdef /.notdef /.notdef
/.notdef /.notdef /.notdef /.notdef /.notdef
/.notdef /.notdef /.notdef /.notdef /.notdef
/.notdef /.notdef /.notdef /.notdef /.notdef
/.notdef /.notdef /space /exclam /quotedbl
/numbersign /dollar /percent /ampersand /quotesingle
/parenleft /parenright /asterisk /plus /comma
/hyphen /period /slash /zero /one
/two /three /four /five /six
/seven /eight /nine /colon /semicolon
/less /equal /greater /question /at
/A /B /C /D /E
/F /G /H /I /J
/K /L /M /N /O
/P /Q /R /S /T
/U /V /W /X /Y
/Z /bracketleft /backslash /bracketright /asciicircum
/underscore /quoteleft /a /b /c
/d /e /f /g /h
/i /j /k /l /m
/n /o /p /q /r
/s /t /u /v /w
/x /y /z /braceleft /bar
/braceright /asciitilde /bullet /Euro /bullet
/quotesinglbase /florin /quotedblbase /ellipsis /dagger
/daggerdbl /circumflex /perthousand /Scaron /guilsinglleft
/OE /bullet /Zcaron /bullet /bullet
/quoteleft /quoteright /quotedblleft /quotedblright /bullet
/endash /emdash /asciitilde /trademark /scaron
/guilsinglright /oe /bullet /zcaron /Ydieresis
/space /exclamdown /cent /sterling /currency
/yen /brokenbar /section /dieresis /copyright
/ordfeminine /guillemotleft /logicalnot /sfthyphen /registered
/macron /degree /plusminus /twosuperior /threesuperior
/acute /mu /paragraph /middot /cedilla
/onesuperior /ordmasculine /guillemotright /onequarter /onehalf
/threequarters /questiondown /Agrave /Aacute /Acircumflex
/Atilde /Adieresis /Aring /AE /Ccedilla
/Egrave /Eacute /Ecircumflex /Edieresis /Igrave
/Iacute /Icircumflex /Idieresis /Eth /Ntilde
/Ograve /Oacute /Ocircumflex /Otilde /Odieresis
/multiply /Oslash /Ugrave /Uacute /Ucircumflex
/Udieresis /Yacute /Thorn /germandbls /agrave
/aacute /acircumflex /atilde /adieresis /aring
/ae /ccedilla /egrave /eacute /ecircumflex
/edieresis /igrave /iacute /icircumflex /idieresis
/eth /ntilde /ograve /oacute /ocircumflex
/otilde /odieresis /divide /oslash /ugrave
/uacute /ucircumflex /udieresis /yacute /thorn
/ydieresis
] def
%%EndResource
%FOPBeginFontReencode
/Courier-Bold findfont
dup length dict begin
  {1 index /FID ne {def} {pop pop} ifelse} forall
  /Encoding WinAnsiEncoding def
  currentdict
end
/Courier-Bold exch definefont pop
/Helvetica findfont
dup length dict begin
  {1 index /FID ne {def} {pop pop} ifelse} forall
  /Encoding WinAnsiEncoding def
  currentdict
end
/Helvetica exch definefont pop
/Courier-BoldOblique findfont
dup length dict begin
  {1 index /FID ne {def} {pop pop} ifelse} forall
  /Encoding WinAnsiEncoding def
  currentdict
end
/Courier-BoldOblique exch definefont pop
/Courier-Oblique findfont
dup length dict begin
  {1 index /FID ne {def} {pop pop} ifelse} forall
  /Encoding WinAnsiEncoding def
  currentdict
end
/Courier-Oblique exch definefont pop
/Times-Roman findfont
dup length dict begin
  {1 index /FID ne {def} {pop pop} ifelse} forall
  /Encoding WinAnsiEncoding def
  currentdict
end
/Times-Roman exch definefont pop
/Helvetica-BoldOblique findfont
dup length dict begin
  {1 index /FID ne {def} {pop pop} ifelse} forall
  /Encoding WinAnsiEncoding def
  currentdict
end
/Helvetica-BoldOblique exch definefont pop
/Helvetica-Bold findfont
dup length dict begin
  {1 index /FID ne {def} {pop pop} ifelse} forall
  /Encoding WinAnsiEncoding def
  currentdict
end
/Helvetica-Bold exch definefont pop
/Helvetica-Oblique findfont
dup length dict begin
  {1 index /FID ne {def} {pop pop} ifelse} forall
  /Encoding WinAnsiEncoding def
  currentdict
end
/Helvetica-Oblique exch definefont pop
/Times-BoldItalic findfont
dup length dict begin
  {1 index /FID ne {def} {pop pop} ifelse} forall
  /Encoding WinAnsiEncoding def
  currentdict
end
/Times-BoldItalic exch definefont pop
/Courier findfont
dup length dict begin
  {1 index /FID ne {def} {pop pop} ifelse} forall
  /Encoding WinAnsiEncoding def
  currentdict
end
/Courier exch definefont pop
/Times-Italic findfont
dup length dict begin
  {1 index /FID ne {def} {pop pop} ifelse} forall
  /Encoding WinAnsiEncoding def
  currentdict
end
/Times-Italic exch definefont pop
/Times-Bold findfont
dup length dict begin
  {1 index /FID ne {def} {pop pop} ifelse} forall
  /Encoding WinAnsiEncoding def
  currentdict
end
/Times-Bold exch definefont pop
%FOPEndFontReencode
%%EndProlog
%%Page: 1 1
%%PageBoundingBox: 0 0 420 315
%%BeginPageSetup
[1 0 0 -1 0 315] CT
%%EndPageSetup
GS
[0.75 0 0 0.75 0 0] CT
1 GC
N
0 0 560 420 re
f
GR
GS
[0.75 0 0 0.75 0 0] CT
1 GC
N
0 0 560 420 re
f
GR
GS
[0.75 0 0 0.75 0 0] CT
1 GC
N
73 358 M
507 358 L
507 31 L
73 31 L
cp
f
GR
GS
[0.75 0 0 0.75 217.5 287.10342] CT
0.149 GC
/Helvetica 24 F
GS
[1 0 0 1 0 0] CT
-3.334 22.119 moveto 
1 -1 scale
(t) t 
GR
GR
GS
[0.75 0 0 0.75 0 0] CT
0.149 GC
2 setlinecap
10.0 ML
N
73 358 M
507 358 L
S
GR
GS
[0.75 0 0 0.75 0 0] CT
0.149 GC
2 setlinecap
10.0 ML
N
73 31 M
507 31 L
S
GR
GS
[0.75 0 0 0.75 0 0] CT
0.149 GC
2 setlinecap
10.0 ML
N
73 358 M
73 353.66 L
S
GR
GS
[0.75 0 0 0.75 0 0] CT
0.149 GC
2 setlinecap
10.0 ML
N
73 31 M
73 35.34 L
S
GR
GS
[0.75 0 0 0.75 0 0] CT
0.149 GC
2 setlinecap
10.0 ML
N
159.8 358 M
159.8 353.66 L
S
GR
GS
[0.75 0 0 0.75 0 0] CT
0.149 GC
2 setlinecap
10.0 ML
N
159.8 31 M
159.8 35.34 L
S
GR
GS
[0.75 0 0 0.75 0 0] CT
0.149 GC
2 setlinecap
10.0 ML
N
246.6 358 M
246.6 353.66 L
S
GR
GS
[0.75 0 0 0.75 0 0] CT
0.149 GC
2 setlinecap
10.0 ML
N
246.6 31 M
246.6 35.34 L
S
GR
GS
[0.75 0 0 0.75 0 0] CT
0.149 GC
2 setlinecap
10.0 ML
N
333.4 358 M
333.4 353.66 L
S
GR
GS
[0.75 0 0 0.75 0 0] CT
0.149 GC
2 setlinecap
10.0 ML
N
333.4 31 M
333.4 35.34 L
S
GR
GS
[0.75 0 0 0.75 0 0] CT
0.149 GC
2 setlinecap
10.0 ML
N
420.2 358 M
420.2 353.66 L
S
GR
GS
[0.75 0 0 0.75 0 0] CT
0.149 GC
2 setlinecap
10.0 ML
N
420.2 31 M
420.2 35.34 L
S
GR
GS
[0.75 0 0 0.75 0 0] CT
0.149 GC
2 setlinecap
10.0 ML
N
507 358 M
507 353.66 L
S
GR
GS
[0.75 0 0 0.75 0 0] CT
0.149 GC
2 setlinecap
10.0 ML
N
507 31 M
507 35.34 L
S
GR
GS
[0.75 0 0 0.75 54.75 274.10001] CT
0.149 GC
/Helvetica 24 F
GS
[1 0 0 1 0 0] CT
-6.674 22.119 moveto 
1 -1 scale
(0) t 
GR
GR
GS
[0.75 0 0 0.75 119.85 274.10001] CT
0.149 GC
/Helvetica 24 F
GS
[1 0 0 1 0 0] CT
-13.348 22.119 moveto 
1 -1 scale
(10) t 
GR
GR
GS
[0.75 0 0 0.75 184.95 274.10001] CT
0.149 GC
/Helvetica 24 F
GS
[1 0 0 1 0 0] CT
-13.348 22.119 moveto 
1 -1 scale
(20) t 
GR
GR
GS
[0.75 0 0 0.75 250.05 274.10001] CT
0.149 GC
/Helvetica 24 F
GS
[1 0 0 1 0 0] CT
-13.348 22.119 moveto 
1 -1 scale
(30) t 
GR
GR
GS
[0.75 0 0 0.75 315.15001 274.10001] CT
0.149 GC
/Helvetica 24 F
GS
[1 0 0 1 0 0] CT
-13.348 22.119 moveto 
1 -1 scale
(40) t 
GR
GR
GS
[0.75 0 0 0.75 380.25 274.10001] CT
0.149 GC
/Helvetica 24 F
GS
[1 0 0 1 0 0] CT
-13.348 22.119 moveto 
1 -1 scale
(50) t 
GR
GR
GS
[0 -0.75 0.75 0 31.58069 145.875] CT
0.149 GC
/Helvetica 24 F
GS
[1 0 0 1 0 0] CT
-12.674 -4.479 moveto 
1 -1 scale
(y2) t 
GR
GR
GS
[0.75 0 0 0.75 0 0] CT
0.149 GC
2 setlinecap
10.0 ML
N
73 358 M
73 31 L
S
GR
GS
[0.75 0 0 0.75 0 0] CT
0.149 GC
2 setlinecap
10.0 ML
N
507 358 M
507 31 L
S
GR
GS
[0.75 0 0 0.75 0 0] CT
0.149 GC
2 setlinecap
10.0 ML
N
73 358 M
77.34 358 L
S
GR
GS
[0.75 0 0 0.75 0 0] CT
0.149 GC
2 setlinecap
10.0 ML
N
507 358 M
502.66 358 L
S
GR
GS
[0.75 0 0 0.75 0 0] CT
0.149 GC
2 setlinecap
10.0 ML
N
73 330.75 M
77.34 330.75 L
S
GR
GS
[0.75 0 0 0.75 0 0] CT
0.149 GC
2 setlinecap
10.0 ML
N
507 330.75 M
502.66 330.75 L
S
GR
GS
[0.75 0 0 0.75 0 0] CT
0.149 GC
2 setlinecap
10.0 ML
N
73 303.5 M
77.34 303.5 L
S
GR
GS
[0.75 0 0 0.75 0 0] CT
0.149 GC
2 setlinecap
10.0 ML
N
507 303.5 M
502.66 303.5 L
S
GR
GS
[0.75 0 0 0.75 0 0] CT
0.149 GC
2 setlinecap
10.0 ML
N
73 276.25 M
77.34 276.25 L
S
GR
GS
[0.75 0 0 0.75 0 0] CT
0.149 GC
2 setlinecap
10.0 ML
N
507 276.25 M
502.66 276.25 L
S
GR
GS
[0.75 0 0 0.75 0 0] CT
0.149 GC
2 setlinecap
10.0 ML
N
73 249 M
77.34 249 L
S
GR
GS
[0.75 0 0 0.75 0 0] CT
0.149 GC
2 setlinecap
10.0 ML
N
507 249 M
502.66 249 L
S
GR
GS
[0.75 0 0 0.75 0 0] CT
0.149 GC
2 setlinecap
10.0 ML
N
73 221.75 M
77.34 221.75 L
S
GR
GS
[0.75 0 0 0.75 0 0] CT
0.149 GC
2 setlinecap
10.0 ML
N
507 221.75 M
502.66 221.75 L
S
GR
GS
[0.75 0 0 0.75 0 0] CT
0.149 GC
2 setlinecap
10.0 ML
N
73 194.5 M
77.34 194.5 L
S
GR
GS
[0.75 0 0 0.75 0 0] CT
0.149 GC
2 setlinecap
10.0 ML
N
507 194.5 M
502.66 194.5 L
S
GR
GS
[0.75 0 0 0.75 0 0] CT
0.149 GC
2 setlinecap
10.0 ML
N
73 167.25 M
77.34 167.25 L
S
GR
GS
[0.75 0 0 0.75 0 0] CT
0.149 GC
2 setlinecap
10.0 ML
N
507 167.25 M
502.66 167.25 L
S
GR
GS
[0.75 0 0 0.75 0 0] CT
0.149 GC
2 setlinecap
10.0 ML
N
73 140 M
77.34 140 L
S
GR
GS
[0.75 0 0 0.75 0 0] CT
0.149 GC
2 setlinecap
10.0 ML
N
507 140 M
502.66 140 L
S
GR
GS
[0.75 0 0 0.75 0 0] CT
0.149 GC
2 setlinecap
10.0 ML
N
73 112.75 M
77.34 112.75 L
S
GR
GS
[0.75 0 0 0.75 0 0] CT
0.149 GC
2 setlinecap
10.0 ML
N
507 112.75 M
502.66 112.75 L
S
GR
GS
[0.75 0 0 0.75 0 0] CT
0.149 GC
2 setlinecap
10.0 ML
N
73 85.5 M
77.34 85.5 L
S
GR
GS
[0.75 0 0 0.75 0 0] CT
0.149 GC
2 setlinecap
10.0 ML
N
507 85.5 M
502.66 85.5 L
S
GR
GS
[0.75 0 0 0.75 0 0] CT
0.149 GC
2 setlinecap
10.0 ML
N
73 58.25 M
77.34 58.25 L
S
GR
GS
[0.75 0 0 0.75 0 0] CT
0.149 GC
2 setlinecap
10.0 ML
N
507 58.25 M
502.66 58.25 L
S
GR
GS
[0.75 0 0 0.75 0 0] CT
0.149 GC
2 setlinecap
10.0 ML
N
73 31 M
77.34 31 L
S
GR
GS
[0.75 0 0 0.75 0 0] CT
0.149 GC
2 setlinecap
10.0 ML
N
507 31 M
502.66 31 L
S
GR
GS
[0.75 0 0 0.75 49.15 268.5] CT
0.149 GC
/Helvetica 24 F
GS
[1 0 0 1 0 0] CT
-21.34 8.82 moveto 
1 -1 scale
(-2) t 
GR
GR
GS
[0.75 0 0 0.75 49.15 248.0625] CT
0.149 GC
/Helvetica 24 F
GS
[1 0 0 1 0 0] CT
-13.336 8.82 moveto 
1 -1 scale
(  ) t 
GR
GR
GS
[0.75 0 0 0.75 49.15 227.625] CT
0.149 GC
/Helvetica 24 F
GS
[1 0 0 1 0 0] CT
-21.34 8.82 moveto 
1 -1 scale
(-1) t 
GR
GR
GS
[0.75 0 0 0.75 49.15 207.1875] CT
0.149 GC
/Helvetica 24 F
GS
[1 0 0 1 0 0] CT
-13.336 8.82 moveto 
1 -1 scale
(  ) t 
GR
GR
GS
[0.75 0 0 0.75 49.15 186.75] CT
0.149 GC
/Helvetica 24 F
GS
[1 0 0 1 0 0] CT
-20.016 8.82 moveto 
1 -1 scale
( 0) t 
GR
GR
GS
[0.75 0 0 0.75 49.15 166.3125] CT
0.149 GC
/Helvetica 24 F
GS
[1 0 0 1 0 0] CT
-13.336 8.82 moveto 
1 -1 scale
(  ) t 
GR
GR
GS
[0.75 0 0 0.75 49.15 145.875] CT
0.149 GC
/Helvetica 24 F
GS
[1 0 0 1 0 0] CT
-20.016 8.82 moveto 
1 -1 scale
( 1) t 
GR
GR
GS
[0.75 0 0 0.75 49.15 125.4375] CT
0.149 GC
/Helvetica 24 F
GS
[1 0 0 1 0 0] CT
-13.336 8.82 moveto 
1 -1 scale
(  ) t 
GR
GR
GS
[0.75 0 0 0.75 49.15 105] CT
0.149 GC
/Helvetica 24 F
GS
[1 0 0 1 0 0] CT
-20.016 8.82 moveto 
1 -1 scale
( 2) t 
GR
GR
GS
[0.75 0 0 0.75 49.15 84.5625] CT
0.149 GC
/Helvetica 24 F
GS
[1 0 0 1 0 0] CT
-13.336 8.82 moveto 
1 -1 scale
(  ) t 
GR
GR
GS
[0.75 0 0 0.75 49.15 64.125] CT
0.149 GC
/Helvetica 24 F
GS
[1 0 0 1 0 0] CT
-20.016 8.82 moveto 
1 -1 scale
( 3) t 
GR
GR
GS
[0.75 0 0 0.75 49.15 43.6875] CT
0.149 GC
/Helvetica 24 F
GS
[1 0 0 1 0 0] CT
-13.336 8.82 moveto 
1 -1 scale
(  ) t 
GR
GR
GS
[0.75 0 0 0.75 49.15 23.25] CT
0.149 GC
/Helvetica 24 F
GS
[1 0 0 1 0 0] CT
-20.016 8.82 moveto 
1 -1 scale
( 4) t 
GR
GR
GS
[0.75 0 0 0.75 0 0] CT
1 0 0 RC
[1 3] 0 setdash
2 LJ
N
73 249 M
507.043 249 L
S
GR
GS
[0.75 0 0 0.75 0 0] CT
0.2 0.702 0 RC
2 setlinecap
10.0 ML
N
73 31 M
81.68 98.78 L
90.36 169.54 L
99.04 237.502 L
107.72 292.895 L
116.4 324.977 L
125.08 312.971 L
133.76 300.134 L
142.44 286.461 L
151.12 271.902 L
159.8 256.376 L
168.48 246.572 L
177.16 247.033 L
185.84 247.58 L
194.52 248.088 L
203.2 248.504 L
211.88 248.801 L
220.56 248.958 L
229.24 248.993 L
237.92 249.006 L
246.6 249.008 L
255.28 249.007 L
263.96 249.004 L
272.64 249.003 L
281.32 249.001 L
290 249.001 L
298.68 249 L
307.36 249 L
316.04 249 L
324.72 249 L
333.4 249 L
342.08 249 L
350.76 249 L
359.44 249 L
368.12 249 L
376.8 249 L
385.48 249 L
394.16 249 L
402.84 249 L
411.52 249 L
420.2 249 L
428.88 249 L
437.56 249 L
446.24 249 L
454.92 249 L
463.6 249 L
472.28 249 L
480.96 249 L
489.64 249 L
498.32 249 L
507 249 L
S
GR
GS
[0.75 0 0 0.75 0 0] CT
0.2 0.702 0 RC
2 setlinecap
10.0 ML
N
73 31 M
81.68 98.78 L
90.36 169.533 L
99.04 237.471 L
107.72 293.253 L
116.4 328.047 L
125.08 328.474 L
133.76 316.228 L
142.44 303.393 L
151.12 289.882 L
159.8 275.567 L
168.48 260.302 L
177.16 250.684 L
185.84 248.941 L
194.52 248.97 L
203.2 248.985 L
211.88 248.993 L
220.56 248.997 L
229.24 248.999 L
237.92 249 L
246.6 249 L
255.28 249 L
263.96 249 L
272.64 249 L
281.32 249 L
290 249 L
298.68 249 L
307.36 249 L
316.04 249 L
324.72 249 L
333.4 249 L
342.08 249 L
350.76 249 L
359.44 249 L
368.12 249 L
376.8 249 L
385.48 249 L
394.16 249 L
402.84 249 L
411.52 249 L
420.2 249 L
428.88 249 L
437.56 249 L
446.24 249 L
454.92 249 L
463.6 249 L
472.28 249 L
480.96 249 L
489.64 249 L
498.32 249 L
507 249 L
S
GR
GS
[0.75 0 0 0.75 0 0] CT
0.2 0.702 0 RC
2 setlinecap
10.0 ML
N
73 31 M
81.68 98.78 L
90.36 169.511 L
99.04 237.558 L
107.72 292.521 L
116.4 323.102 L
125.08 310.916 L
133.76 297.962 L
142.44 284.197 L
151.12 269.522 L
159.8 254.725 L
168.48 249.6 L
177.16 248.966 L
185.84 248.966 L
194.52 248.976 L
203.2 248.985 L
211.88 248.991 L
220.56 248.995 L
229.24 248.998 L
237.92 248.999 L
246.6 249 L
255.28 249 L
263.96 249 L
272.64 249 L
281.32 249 L
290 249 L
298.68 249 L
307.36 249 L
316.04 249 L
324.72 249 L
333.4 249 L
342.08 249 L
350.76 249 L
359.44 249 L
368.12 249 L
376.8 249 L
385.48 249 L
394.16 249 L
402.84 249 L
411.52 249 L
420.2 249 L
428.88 249 L
437.56 249 L
446.24 249 L
454.92 249 L
463.6 249 L
472.28 249 L
480.96 249 L
489.64 249 L
498.32 249 L
507 249 L
S
GR
GS
[0.75 0 0 0.75 0 0] CT
0.2 0.702 0 RC
2 setlinecap
10.0 ML
N
73 31 M
81.68 98.78 L
90.36 169.503 L
99.04 237.527 L
107.72 292.888 L
116.4 326.25 L
125.08 314.916 L
133.76 303.411 L
142.44 292.509 L
151.12 282.935 L
159.8 274.726 L
168.48 267.928 L
177.16 262.409 L
185.84 258.157 L
194.52 255.028 L
203.2 252.822 L
211.88 251.328 L
220.56 250.359 L
229.24 249.758 L
237.92 249.403 L
246.6 249.204 L
255.28 249.1 L
263.96 249.046 L
272.64 249.02 L
281.32 249.009 L
290 249.004 L
298.68 249.001 L
307.36 249.001 L
316.04 249 L
324.72 249 L
333.4 249 L
342.08 249 L
350.76 249 L
359.44 249 L
368.12 249 L
376.8 249 L
385.48 249 L
394.16 249 L
402.84 249 L
411.52 249 L
420.2 249 L
428.88 249 L
437.56 249 L
446.24 249 L
454.92 249 L
463.6 249 L
472.28 249 L
480.96 249 L
489.64 249 L
498.32 249 L
507 249 L
S
GR
GS
[0.75 0 0 0.75 0 0] CT
0.2 0.702 0 RC
2 setlinecap
10.0 ML
N
73 31 M
81.68 98.78 L
90.36 169.54 L
99.04 237.502 L
107.72 292.895 L
116.4 324.977 L
125.08 312.971 L
133.76 300.134 L
142.44 286.461 L
151.12 271.902 L
159.8 256.376 L
168.48 246.572 L
177.16 247.033 L
185.84 247.58 L
194.52 248.088 L
203.2 248.504 L
211.88 248.801 L
220.56 248.958 L
229.24 248.993 L
237.92 249.006 L
246.6 249.008 L
255.28 249.007 L
263.96 249.004 L
272.64 249.003 L
281.32 249.001 L
290 249.001 L
298.68 249 L
307.36 249 L
316.04 249 L
324.72 249 L
333.4 249 L
342.08 249 L
350.76 249 L
359.44 249 L
368.12 249 L
376.8 249 L
385.48 249 L
394.16 249 L
402.84 249 L
411.52 249 L
420.2 249 L
428.88 249 L
437.56 249 L
446.24 249 L
454.92 249 L
463.6 249 L
472.28 249 L
480.96 249 L
489.64 249 L
498.32 249 L
507 249 L
S
GR
GS
[0.75 0 0 0.75 0 0] CT
0.2 0.702 0 RC
2 setlinecap
10.0 ML
N
73 31 M
81.68 111.86 L
90.36 190.932 L
99.04 259.635 L
107.72 306.899 L
116.4 324.377 L
125.08 307.851 L
133.76 292.491 L
142.44 280.928 L
151.12 272.425 L
159.8 266.148 L
168.48 261.31 L
177.16 257.702 L
185.84 255.074 L
194.52 253.194 L
203.2 251.867 L
211.88 250.944 L
220.56 250.308 L
229.24 249.873 L
237.92 249.579 L
246.6 249.381 L
255.28 249.249 L
263.96 249.161 L
272.64 249.105 L
281.32 249.071 L
290 249.053 L
298.68 249.031 L
307.36 249.019 L
316.04 249.012 L
324.72 249.008 L
333.4 249.005 L
342.08 249.003 L
350.76 249.002 L
359.44 249.001 L
368.12 249.001 L
376.8 249.001 L
385.48 249 L
394.16 249 L
402.84 249 L
411.52 249 L
420.2 249 L
428.88 249 L
437.56 249 L
446.24 249 L
454.92 249 L
463.6 249 L
472.28 249 L
480.96 249 L
489.64 249 L
498.32 249 L
507 249 L
S
GR
GS
[0.75 0 0 0.75 0 0] CT
0.2 0.702 0 RC
2 setlinecap
10.0 ML
N
73 31 M
81.68 98.78 L
90.36 169.511 L
99.04 237.558 L
107.72 292.521 L
116.4 323.102 L
125.08 310.916 L
133.76 297.962 L
142.44 284.197 L
151.12 269.522 L
159.8 254.725 L
168.48 249.6 L
177.16 248.966 L
185.84 248.966 L
194.52 248.976 L
203.2 248.985 L
211.88 248.991 L
220.56 248.995 L
229.24 248.998 L
237.92 248.999 L
246.6 249 L
255.28 249 L
263.96 249 L
272.64 249 L
281.32 249 L
290 249 L
298.68 249 L
307.36 249 L
316.04 249 L
324.72 249 L
333.4 249 L
342.08 249 L
350.76 249 L
359.44 249 L
368.12 249 L
376.8 249 L
385.48 249 L
394.16 249 L
402.84 249 L
411.52 249 L
420.2 249 L
428.88 249 L
437.56 249 L
446.24 249 L
454.92 249 L
463.6 249 L
472.28 249 L
480.96 249 L
489.64 249 L
498.32 249 L
507 249 L
S
GR
GS
[0.75 0 0 0.75 0 0] CT
0.2 0.702 0 RC
2 setlinecap
10.0 ML
N
73 31 M
81.68 111.86 L
90.36 190.922 L
99.04 259.661 L
107.72 306.051 L
116.4 319.768 L
125.08 303.493 L
133.76 289.482 L
142.44 279.605 L
151.12 272.277 L
159.8 266.747 L
168.48 262.383 L
177.16 258.952 L
185.84 256.333 L
194.52 254.368 L
203.2 252.912 L
211.88 251.84 L
220.56 251.057 L
229.24 250.486 L
237.92 250.072 L
246.6 249.772 L
255.28 249.555 L
263.96 249.398 L
272.64 249.285 L
281.32 249.204 L
290 249.146 L
298.68 249.107 L
307.36 249.081 L
316.04 249.064 L
324.72 249.049 L
333.4 249.03 L
342.08 249.02 L
350.76 249.013 L
359.44 249.009 L
368.12 249.006 L
376.8 249.004 L
385.48 249.003 L
394.16 249.002 L
402.84 249.002 L
411.52 249.001 L
420.2 249.001 L
428.88 249.001 L
437.56 249 L
446.24 249 L
454.92 249 L
463.6 249 L
472.28 249 L
480.96 249 L
489.64 249 L
498.32 249 L
507 249 L
S
GR
GS
[0.75 0 0 0.75 0 0] CT
0 0 1 RC
2 setlinecap
10.0 ML
N
73 31 M
81.68 44.182 L
90.36 57.835 L
99.04 71.865 L
107.72 86.209 L
116.4 101.142 L
125.08 116.627 L
133.76 132.664 L
142.44 148.904 L
151.12 165.226 L
159.8 181.576 L
168.48 197.87 L
177.16 213.995 L
185.84 229.816 L
194.52 245.222 L
203.2 260.008 L
211.88 273.893 L
220.56 286.506 L
229.24 297.291 L
237.92 305.633 L
246.6 311.013 L
255.28 313 L
263.96 311.391 L
272.64 306.383 L
281.32 298.702 L
290 289.497 L
298.68 279.602 L
307.36 270.067 L
316.04 261.74 L
324.72 255.23 L
333.4 250.896 L
342.08 248.94 L
350.76 248.936 L
359.44 248.961 L
368.12 248.979 L
376.8 248.99 L
385.48 248.996 L
394.16 248.999 L
402.84 249 L
411.52 249 L
420.2 249 L
428.88 249 L
437.56 249 L
446.24 249 L
454.92 249 L
463.6 249 L
472.28 249 L
480.96 249 L
489.64 249 L
498.32 249 L
507 249 L
S
GR
GS
[0.75 0 0 0.75 0 0] CT
0 0 1 RC
2 setlinecap
10.0 ML
N
73 31 M
81.68 44.182 L
90.36 57.836 L
99.04 71.863 L
107.72 86.19 L
116.4 100.934 L
125.08 116.161 L
133.76 131.773 L
142.44 147.681 L
151.12 163.844 L
159.8 180.171 L
168.48 196.501 L
177.16 212.653 L
185.84 228.483 L
194.52 243.942 L
203.2 258.959 L
211.88 273.405 L
220.56 287.13 L
229.24 299.965 L
237.92 311.691 L
246.6 322.039 L
255.28 330.85 L
263.96 337.989 L
272.64 343.358 L
281.32 346.9 L
290 348.614 L
298.68 348.56 L
307.36 346.867 L
316.04 343.725 L
324.72 339.363 L
333.4 334.004 L
342.08 327.833 L
350.76 321.011 L
359.44 313.689 L
368.12 306.061 L
376.8 298.395 L
385.48 290.915 L
394.16 282.929 L
402.84 275.262 L
411.52 268.461 L
420.2 262.655 L
428.88 258.045 L
437.56 254.616 L
446.24 252.218 L
454.92 250.665 L
463.6 249.751 L
472.28 249.278 L
480.96 249.08 L
489.64 249.026 L
498.32 249.004 L
507 248.996 L
S
GR
GS
[0.75 0 0 0.75 0 0] CT
0 0 1 RC
2 setlinecap
10.0 ML
N
73 31 M
81.68 44.182 L
90.36 57.842 L
99.04 71.887 L
107.72 86.269 L
116.4 101.344 L
125.08 117.033 L
133.76 133.138 L
142.44 149.364 L
151.12 165.679 L
159.8 182.029 L
168.48 198.331 L
177.16 214.466 L
185.84 230.286 L
194.52 245.675 L
203.2 260.412 L
211.88 274.194 L
220.56 286.629 L
229.24 297.112 L
237.92 305.048 L
246.6 309.937 L
255.28 311.419 L
263.96 309.417 L
272.64 304.275 L
281.32 296.816 L
290 288.059 L
298.68 278.728 L
307.36 269.966 L
316.04 262.445 L
324.72 256.608 L
333.4 252.59 L
342.08 250.253 L
350.76 249.246 L
359.44 249.021 L
368.12 249 L
376.8 248.994 L
385.48 248.994 L
394.16 248.995 L
402.84 248.997 L
411.52 248.998 L
420.2 248.999 L
428.88 248.999 L
437.56 249 L
446.24 249 L
454.92 249 L
463.6 249 L
472.28 249 L
480.96 249 L
489.64 249 L
498.32 249 L
507 249 L
S
GR
GS
[0.75 0 0 0.75 0 0] CT
0 0 1 RC
2 setlinecap
10.0 ML
N
73 31 M
81.68 44.182 L
90.36 57.844 L
99.04 71.885 L
107.72 86.234 L
116.4 101.13 L
125.08 116.506 L
133.76 132.257 L
142.44 148.349 L
151.12 164.657 L
159.8 180.999 L
168.48 197.256 L
177.16 213.318 L
185.84 229.106 L
194.52 244.546 L
203.2 259.52 L
211.88 273.889 L
220.56 287.491 L
229.24 300.148 L
237.92 311.61 L
246.6 321.63 L
255.28 330.052 L
263.96 336.759 L
272.64 341.672 L
281.32 344.764 L
290 346.069 L
298.68 345.686 L
307.36 343.775 L
316.04 340.545 L
324.72 336.228 L
333.4 331.037 L
342.08 325.162 L
350.76 318.772 L
359.44 312.041 L
368.12 305.165 L
376.8 298.333 L
385.48 291.631 L
394.16 284.305 L
402.84 277.105 L
411.52 270.639 L
420.2 265.063 L
428.88 260.474 L
437.56 256.9 L
446.24 254.244 L
454.92 252.354 L
463.6 251.062 L
472.28 250.215 L
480.96 249.685 L
489.64 249.368 L
498.32 249.188 L
507 249.094 L
S
GR
GS
[0.75 0 0 0.75 0 0] CT
0 0 1 RC
2 setlinecap
10.0 ML
N
73 31 M
81.68 44.182 L
90.36 57.835 L
99.04 71.865 L
107.72 86.209 L
116.4 101.142 L
125.08 116.627 L
133.76 132.664 L
142.44 148.904 L
151.12 165.226 L
159.8 181.576 L
168.48 197.87 L
177.16 213.995 L
185.84 229.816 L
194.52 245.222 L
203.2 260.008 L
211.88 273.893 L
220.56 286.506 L
229.24 297.291 L
237.92 305.633 L
246.6 311.013 L
255.28 313 L
263.96 311.391 L
272.64 306.383 L
281.32 298.702 L
290 289.497 L
298.68 279.602 L
307.36 270.067 L
316.04 261.74 L
324.72 255.23 L
333.4 250.896 L
342.08 248.94 L
350.76 248.936 L
359.44 248.961 L
368.12 248.979 L
376.8 248.99 L
385.48 248.996 L
394.16 248.999 L
402.84 249 L
411.52 249 L
420.2 249 L
428.88 249 L
437.56 249 L
446.24 249 L
454.92 249 L
463.6 249 L
472.28 249 L
480.96 249 L
489.64 249 L
498.32 249 L
507 249 L
S
GR
GS
[0.75 0 0 0.75 0 0] CT
0 0 1 RC
2 setlinecap
10.0 ML
N
73 31 M
81.68 57.262 L
90.36 83.099 L
99.04 108.663 L
107.72 132.971 L
116.4 156.068 L
125.08 177.954 L
133.76 198.555 L
142.44 217.734 L
151.12 235.359 L
159.8 251.389 L
168.48 265.732 L
177.16 278.308 L
185.84 289.055 L
194.52 297.883 L
203.2 304.759 L
211.88 309.777 L
220.56 313.071 L
229.24 314.808 L
237.92 315.17 L
246.6 314.35 L
255.28 312.536 L
263.96 309.906 L
272.64 306.62 L
281.32 302.819 L
290 298.62 L
298.68 294.121 L
307.36 289.4 L
316.04 284.432 L
324.72 278.388 L
333.4 272.086 L
342.08 266.696 L
350.76 262.196 L
359.44 258.6 L
368.12 255.858 L
376.8 253.83 L
385.48 252.36 L
394.16 251.312 L
402.84 250.577 L
411.52 250.066 L
420.2 249.715 L
428.88 249.476 L
437.56 249.314 L
446.24 249.206 L
454.92 249.134 L
463.6 249.089 L
472.28 249.062 L
480.96 249.043 L
489.64 249.026 L
498.32 249.016 L
507 249.01 L
S
GR
GS
[0.75 0 0 0.75 0 0] CT
0 0 1 RC
2 setlinecap
10.0 ML
N
73 31 M
81.68 44.182 L
90.36 57.842 L
99.04 71.887 L
107.72 86.269 L
116.4 101.344 L
125.08 117.033 L
133.76 133.138 L
142.44 149.364 L
151.12 165.679 L
159.8 182.029 L
168.48 198.331 L
177.16 214.466 L
185.84 230.286 L
194.52 245.675 L
203.2 260.412 L
211.88 274.194 L
220.56 286.629 L
229.24 297.112 L
237.92 305.048 L
246.6 309.937 L
255.28 311.419 L
263.96 309.417 L
272.64 304.275 L
281.32 296.816 L
290 288.059 L
298.68 278.728 L
307.36 269.966 L
316.04 262.445 L
324.72 256.608 L
333.4 252.59 L
342.08 250.253 L
350.76 249.246 L
359.44 249.021 L
368.12 249 L
376.8 248.994 L
385.48 248.994 L
394.16 248.995 L
402.84 248.997 L
411.52 248.998 L
420.2 248.999 L
428.88 248.999 L
437.56 249 L
446.24 249 L
454.92 249 L
463.6 249 L
472.28 249 L
480.96 249 L
489.64 249 L
498.32 249 L
507 249 L
S
GR
GS
[0.75 0 0 0.75 0 0] CT
0 0 1 RC
2 setlinecap
10.0 ML
N
73 31 M
81.68 57.262 L
90.36 83.172 L
99.04 108.712 L
107.72 132.995 L
116.4 156.07 L
125.08 177.945 L
133.76 198.551 L
142.44 217.747 L
151.12 235.38 L
159.8 251.399 L
168.48 265.7 L
177.16 278.191 L
185.84 288.805 L
194.52 297.433 L
203.2 304.071 L
211.88 308.832 L
220.56 311.871 L
229.24 313.379 L
237.92 313.559 L
246.6 312.62 L
255.28 310.764 L
263.96 308.173 L
272.64 305.009 L
281.32 301.404 L
290 297.47 L
298.68 293.292 L
307.36 288.94 L
316.04 284.441 L
324.72 279.011 L
333.4 273.113 L
342.08 267.901 L
350.76 263.598 L
359.44 260.002 L
368.12 257.179 L
376.8 255.025 L
385.48 253.41 L
394.16 252.213 L
402.84 251.333 L
411.52 250.689 L
420.2 250.22 L
428.88 249.88 L
437.56 249.633 L
446.24 249.455 L
454.92 249.326 L
463.6 249.233 L
472.28 249.167 L
480.96 249.121 L
489.64 249.09 L
498.32 249.07 L
507 249.059 L
S
GR
%%Trailer
%%Pages: 1
%%EOF
